ContadorMod19T/simulation/qsim/ContadorMod19T.msim.vcd
$comment
	File created using the following command:
		vcd file ContadorMod19T.msim.vcd -direction
$end
$date
	Wed Nov 15 22:55:34 2023
$end
$version
	ModelSim Version 10.5b
$end
$timescale
	1ps
$end

$scope module ContadorMod19T_vlg_vec_tst $end
$var reg 1 ! CLK $end
$var wire 1 " C [4] $end
$var wire 1 # C [3] $end
$var wire 1 $ C [2] $end
$var wire 1 % C [1] $end
$var wire 1 & C [0] $end
$var wire 1 ' RST $end

$scope module i1 $end
$var wire 1 ( gnd $end
$var wire 1 ) vcc $end
$var wire 1 * unknown $end
$var tri1 1 + devclrn $end
$var tri1 1 , devpor $end
$var tri1 1 - devoe $end
$var wire 1 . ~QUARTUS_CREATED_GND~I_combout $end
$var wire 1 / ~QUARTUS_CREATED_UNVM~~busy $end
$var wire 1 0 ~QUARTUS_CREATED_ADC1~~eoc $end
$var wire 1 1 RST~output_o $end
$var wire 1 2 C[4]~output_o $end
$var wire 1 3 C[3]~output_o $end
$var wire 1 4 C[2]~output_o $end
$var wire 1 5 C[1]~output_o $end
$var wire 1 6 C[0]~output_o $end
$var wire 1 7 CLK~input_o $end
$var wire 1 8 inst~0_combout $end
$var wire 1 9 inst~feeder_combout $end
$var wire 1 : inst~q $end
$var wire 1 ; inst1~0_combout $end
$var wire 1 < inst1~feeder_combout $end
$var wire 1 = inst1~q $end
$var wire 1 > inst3~0_combout $end
$var wire 1 ? inst3~q $end
$var wire 1 @ inst4~0_combout $end
$var wire 1 A inst4~feeder_combout $end
$var wire 1 B inst4~q $end
$var wire 1 C inst20~0_combout $end
$var wire 1 D inst9~0_combout $end
$var wire 1 E inst9~q $end
$var wire 1 F inst20~combout $end
$upscope $end
$upscope $end
$enddefinitions $end
#0
$dumpvars
0!
0&
0%
0$
0#
0"
1'
0(
1)
x*
1+
1,
1-
0.
z/
z0
11
02
03
04
05
06
07
18
19
0:
1;
1<
0=
1>
0?
1@
1A
0B
0C
1D
0E
0F
$end
#20000
1!
17
1:
16
08
1&
09
#40000
0!
07
#60000
1!
17
0:
06
18
0&
19
1=
15
0;
1%
0<
#80000
0!
07
#100000
1!
17
1:
16
1C
08
1&
09
#120000
0!
07
#140000
1!
17
0:
06
0C
18
0&
19
0=
05
1;
0%
1<
1?
14
0>
1$
#160000
0!
07
#180000
1!
17
1:
16
08
1&
09
#200000
0!
07
#220000
1!
17
0:
06
18
0&
19
1=
15
0;
1%
0<
#240000
0!
07
#260000
1!
17
1:
16
08
1&
09
#280000
0!
07
#300000
1!
17
0:
06
18
0&
19
0=
05
1;
0%
1<
0?
04
1>
0$
1B
13
0@
1#
0A
#320000
0!
07
#340000
1!
17
1:
16
08
1&
09
#360000
0!
07
#380000
1!
17
0:
06
18
0&
19
1=
15
0;
1%
0<
#400000
0!
07
#420000
1!
17
1:
16
08
1&
09
#440000
0!
07
#460000
1!
17
0:
06
18
0&
19
0=
05
1;
0%
1<
1?
14
0>
1$
#480000
0!
07
#500000
1!
17
1:
16
08
1&
09
#520000
0!
07
#540000
1!
17
0:
06
18
0&
19
1=
15
0;
1%
0<
#560000
0!
07
#580000
1!
17
1:
16
08
1&
09
#600000
0!
07
#620000
1!
17
0:
06
18
0&
19
0=
05
1;
0%
1<
0?
04
1>
0$
0B
03
1@
0#
1A
1E
12
1"
0D
#640000
0!
07
#660000
1!
17
1:
16
08
1&
09
#680000
0!
07
#700000
1!
17
0:
06
18
0&
19
1=
15
0;
1%
0<
#720000
0!
07
#740000
1!
17
1:
16
1C
08
1&
1F
09
01
0'
0:
0=
0E
02
05
06
0C
18
1;
0F
0&
0%
0"
1D
11
1'
19
1<
#760000
0!
07
#780000
1!
17
1:
16
08
1&
09
#800000
0!
07
#820000
1!
17
0:
06
18
0&
19
1=
15
0;
1%
0<
#840000
0!
07
#860000
1!
17
1:
16
1C
08
1&
09
#880000
0!
07
#900000
1!
17
0:
06
0C
18
0&
19
0=
05
1;
0%
1<
1?
14
0>
1$
#920000
0!
07
#940000
1!
17
1:
16
08
1&
09
#960000
0!
07
#980000
1!
17
0:
06
18
0&
19
1=
15
0;
1%
0<
