PiedraPapelTijeras2/simulation/qsim/PiedraPapelTijeras2.msim.vcd
$comment
	File created using the following command:
		vcd file PiedraPapelTijeras2.msim.vcd -direction
$end
$date
	Wed Nov 08 21:50:39 2023
$end
$version
	ModelSim Version 10.5b
$end
$timescale
	1ps
$end

$scope module PiedraPapelTijeras2_vlg_vec_tst $end
$var reg 1 ! A $end
$var reg 1 " B $end
$var reg 1 # C $end
$var reg 1 $ D $end
$var wire 1 % S $end

$scope module i1 $end
$var wire 1 & gnd $end
$var wire 1 ' vcc $end
$var wire 1 ( unknown $end
$var tri1 1 ) devclrn $end
$var tri1 1 * devpor $end
$var tri1 1 + devoe $end
$var wire 1 , ~QUARTUS_CREATED_GND~I_combout $end
$var wire 1 - ~QUARTUS_CREATED_UNVM~~busy $end
$var wire 1 . ~QUARTUS_CREATED_ADC1~~eoc $end
$var wire 1 / S~output_o $end
$var wire 1 0 A~input_o $end
$var wire 1 1 C~input_o $end
$var wire 1 2 B~input_o $end
$var wire 1 3 D~input_o $end
$var wire 1 4 inst8~0_combout $end
$upscope $end
$upscope $end
$enddefinitions $end
#0
$dumpvars
0!
0"
0#
0$
0%
0&
1'
x(
1)
1*
1+
0,
z-
z.
0/
00
01
02
03
04
$end
#25000
1!
10
#50000
1"
0!
00
12
#75000
1#
1!
10
11
#100000
1$
0"
0!
00
02
13
#125000
1!
10
14
1/
1%
#150000
0#
1"
0!
00
12
01
#175000
1!
10
#200000
0$
0"
0!
00
02
03
04
0/
0%
#225000
1#
1!
10
11
14
1/
1%
#250000
1"
0!
00
12
#275000
1!
10
04
0/
0%
#300000
1$
0#
0"
0!
00
02
01
13
#325000
1!
10
#350000
1"
0!
00
12
14
1/
1%
#375000
1#
1!
10
11
#400000
0$
0"
0!
00
02
03
04
0/
0%
#425000
1!
10
14
1/
1%
#450000
0#
1"
0!
00
12
01
04
0/
0%
#475000
1!
10
#500000
1$
0"
0!
00
02
13
#525000
1#
1!
10
11
14
1/
1%
#550000
1"
0!
00
12
04
0/
0%
#575000
1!
10
14
1/
1%
#600000
0$
0#
0"
0!
00
02
01
03
04
0/
0%
#625000
1!
10
#650000
1"
0!
00
12
#675000
1#
1!
10
11
#700000
1$
0"
0!
00
02
13
#725000
1!
10
14
1/
1%
#750000
0#
1"
0!
00
12
01
#775000
1!
10
#800000
0$
0"
0!
00
02
03
04
0/
0%
#825000
1#
1!
10
11
14
1/
1%
#850000
1"
0!
00
12
#875000
1!
10
04
0/
0%
#900000
1$
0#
0"
0!
00
02
01
13
#925000
1!
10
#950000
1"
0!
00
12
14
1/
1%
#975000
1#
1!
10
11
