MA_EST/simulation/qsim/MA_EST.msim.vcd
$comment
	File created using the following command:
		vcd file MA_EST.msim.vcd -direction
$end
$date
	Thu Feb 29 22:03:59 2024
$end
$version
	ModelSim Version 10.5b
$end
$timescale
	1ps
$end

$scope module ma_est_vhd_vec_tst $end
$var wire 1 ! clk $end
$var wire 1 " cnt [4] $end
$var wire 1 # cnt [3] $end
$var wire 1 $ cnt [2] $end
$var wire 1 % cnt [1] $end
$var wire 1 & cnt [0] $end
$var wire 1 ' EO [3] $end
$var wire 1 ( EO [2] $end
$var wire 1 ) EO [1] $end
$var wire 1 * EO [0] $end
$var wire 1 + est [2] $end
$var wire 1 , est [1] $end
$var wire 1 - est [0] $end
$var wire 1 . noct $end
$var wire 1 / NS [2] $end
$var wire 1 0 NS [1] $end
$var wire 1 1 NS [0] $end
$var wire 1 2 OE [3] $end
$var wire 1 3 OE [2] $end
$var wire 1 4 OE [1] $end
$var wire 1 5 OE [0] $end
$var wire 1 6 rst $end
$var wire 1 7 SN [2] $end
$var wire 1 8 SN [1] $end
$var wire 1 9 SN [0] $end
$var wire 1 : start $end
$var wire 1 ; T1 [4] $end
$var wire 1 < T1 [3] $end
$var wire 1 = T1 [2] $end
$var wire 1 > T1 [1] $end
$var wire 1 ? T1 [0] $end
$var wire 1 @ T2 [4] $end
$var wire 1 A T2 [3] $end
$var wire 1 B T2 [2] $end
$var wire 1 C T2 [1] $end
$var wire 1 D T2 [0] $end
$var wire 1 E T3 [4] $end
$var wire 1 F T3 [3] $end
$var wire 1 G T3 [2] $end
$var wire 1 H T3 [1] $end
$var wire 1 I T3 [0] $end
$var wire 1 J T4 [4] $end
$var wire 1 K T4 [3] $end
$var wire 1 L T4 [2] $end
$var wire 1 M T4 [1] $end
$var wire 1 N T4 [0] $end
$var wire 1 O T5 [4] $end
$var wire 1 P T5 [3] $end
$var wire 1 Q T5 [2] $end
$var wire 1 R T5 [1] $end
$var wire 1 S T5 [0] $end
$var wire 1 T T6 [4] $end
$var wire 1 U T6 [3] $end
$var wire 1 V T6 [2] $end
$var wire 1 W T6 [1] $end
$var wire 1 X T6 [0] $end

$scope module i1 $end
$var wire 1 Y gnd $end
$var wire 1 Z vcc $end
$var wire 1 [ unknown $end
$var wire 1 \ devoe $end
$var wire 1 ] devclrn $end
$var wire 1 ^ devpor $end
$var wire 1 _ ww_devoe $end
$var wire 1 ` ww_devclrn $end
$var wire 1 a ww_devpor $end
$var wire 1 b ww_clk $end
$var wire 1 c ww_rst $end
$var wire 1 d ww_start $end
$var wire 1 e ww_noct $end
$var wire 1 f ww_T1 [4] $end
$var wire 1 g ww_T1 [3] $end
$var wire 1 h ww_T1 [2] $end
$var wire 1 i ww_T1 [1] $end
$var wire 1 j ww_T1 [0] $end
$var wire 1 k ww_T2 [4] $end
$var wire 1 l ww_T2 [3] $end
$var wire 1 m ww_T2 [2] $end
$var wire 1 n ww_T2 [1] $end
$var wire 1 o ww_T2 [0] $end
$var wire 1 p ww_T3 [4] $end
$var wire 1 q ww_T3 [3] $end
$var wire 1 r ww_T3 [2] $end
$var wire 1 s ww_T3 [1] $end
$var wire 1 t ww_T3 [0] $end
$var wire 1 u ww_T4 [4] $end
$var wire 1 v ww_T4 [3] $end
$var wire 1 w ww_T4 [2] $end
$var wire 1 x ww_T4 [1] $end
$var wire 1 y ww_T4 [0] $end
$var wire 1 z ww_T5 [4] $end
$var wire 1 { ww_T5 [3] $end
$var wire 1 | ww_T5 [2] $end
$var wire 1 } ww_T5 [1] $end
$var wire 1 ~ ww_T5 [0] $end
$var wire 1 !! ww_T6 [4] $end
$var wire 1 "! ww_T6 [3] $end
$var wire 1 #! ww_T6 [2] $end
$var wire 1 $! ww_T6 [1] $end
$var wire 1 %! ww_T6 [0] $end
$var wire 1 &! ww_cnt [4] $end
$var wire 1 '! ww_cnt [3] $end
$var wire 1 (! ww_cnt [2] $end
$var wire 1 )! ww_cnt [1] $end
$var wire 1 *! ww_cnt [0] $end
$var wire 1 +! ww_EO [3] $end
$var wire 1 ,! ww_EO [2] $end
$var wire 1 -! ww_EO [1] $end
$var wire 1 .! ww_EO [0] $end
$var wire 1 /! ww_OE [3] $end
$var wire 1 0! ww_OE [2] $end
$var wire 1 1! ww_OE [1] $end
$var wire 1 2! ww_OE [0] $end
$var wire 1 3! ww_NS [2] $end
$var wire 1 4! ww_NS [1] $end
$var wire 1 5! ww_NS [0] $end
$var wire 1 6! ww_SN [2] $end
$var wire 1 7! ww_SN [1] $end
$var wire 1 8! ww_SN [0] $end
$var wire 1 9! ww_est [2] $end
$var wire 1 :! ww_est [1] $end
$var wire 1 ;! ww_est [0] $end
$var wire 1 <! \~QUARTUS_CREATED_ADC1~_CHSEL_bus\ [4] $end
$var wire 1 =! \~QUARTUS_CREATED_ADC1~_CHSEL_bus\ [3] $end
$var wire 1 >! \~QUARTUS_CREATED_ADC1~_CHSEL_bus\ [2] $end
$var wire 1 ?! \~QUARTUS_CREATED_ADC1~_CHSEL_bus\ [1] $end
$var wire 1 @! \~QUARTUS_CREATED_ADC1~_CHSEL_bus\ [0] $end
$var wire 1 A! \rst~inputclkctrl_INCLK_bus\ [3] $end
$var wire 1 B! \rst~inputclkctrl_INCLK_bus\ [2] $end
$var wire 1 C! \rst~inputclkctrl_INCLK_bus\ [1] $end
$var wire 1 D! \rst~inputclkctrl_INCLK_bus\ [0] $end
$var wire 1 E! \noct~inputclkctrl_INCLK_bus\ [3] $end
$var wire 1 F! \noct~inputclkctrl_INCLK_bus\ [2] $end
$var wire 1 G! \noct~inputclkctrl_INCLK_bus\ [1] $end
$var wire 1 H! \noct~inputclkctrl_INCLK_bus\ [0] $end
$var wire 1 I! \clk~inputclkctrl_INCLK_bus\ [3] $end
$var wire 1 J! \clk~inputclkctrl_INCLK_bus\ [2] $end
$var wire 1 K! \clk~inputclkctrl_INCLK_bus\ [1] $end
$var wire 1 L! \clk~inputclkctrl_INCLK_bus\ [0] $end
$var wire 1 M! \~QUARTUS_CREATED_GND~I_combout\ $end
$var wire 1 N! \~QUARTUS_CREATED_UNVM~~busy\ $end
$var wire 1 O! \~QUARTUS_CREATED_ADC1~~eoc\ $end
$var wire 1 P! \EO[0]~output_o\ $end
$var wire 1 Q! \EO[1]~output_o\ $end
$var wire 1 R! \EO[2]~output_o\ $end
$var wire 1 S! \EO[3]~output_o\ $end
$var wire 1 T! \OE[0]~output_o\ $end
$var wire 1 U! \OE[1]~output_o\ $end
$var wire 1 V! \OE[2]~output_o\ $end
$var wire 1 W! \OE[3]~output_o\ $end
$var wire 1 X! \NS[0]~output_o\ $end
$var wire 1 Y! \NS[1]~output_o\ $end
$var wire 1 Z! \NS[2]~output_o\ $end
$var wire 1 [! \SN[0]~output_o\ $end
$var wire 1 \! \SN[1]~output_o\ $end
$var wire 1 ]! \SN[2]~output_o\ $end
$var wire 1 ^! \est[0]~output_o\ $end
$var wire 1 _! \est[1]~output_o\ $end
$var wire 1 `! \est[2]~output_o\ $end
$var wire 1 a! \clk~input_o\ $end
$var wire 1 b! \clk~inputclkctrl_outclk\ $end
$var wire 1 c! \cnt[4]~input_o\ $end
$var wire 1 d! \cnt[1]~input_o\ $end
$var wire 1 e! \cnt[0]~input_o\ $end
$var wire 1 f! \T2[1]~input_o\ $end
$var wire 1 g! \T2[0]~input_o\ $end
$var wire 1 h! \Equal1~0_combout\ $end
$var wire 1 i! \T2[2]~input_o\ $end
$var wire 1 j! \cnt[2]~input_o\ $end
$var wire 1 k! \cnt[3]~input_o\ $end
$var wire 1 l! \T2[3]~input_o\ $end
$var wire 1 m! \Equal1~1_combout\ $end
$var wire 1 n! \T2[4]~input_o\ $end
$var wire 1 o! \Equal1~2_combout\ $end
$var wire 1 p! \T3[2]~input_o\ $end
$var wire 1 q! \T3[3]~input_o\ $end
$var wire 1 r! \Equal2~1_combout\ $end
$var wire 1 s! \T3[0]~input_o\ $end
$var wire 1 t! \T3[1]~input_o\ $end
$var wire 1 u! \Equal2~0_combout\ $end
$var wire 1 v! \T3[4]~input_o\ $end
$var wire 1 w! \Equal2~2_combout\ $end
$var wire 1 x! \T1[1]~input_o\ $end
$var wire 1 y! \T1[0]~input_o\ $end
$var wire 1 z! \Equal0~0_combout\ $end
$var wire 1 {! \T1[4]~input_o\ $end
$var wire 1 |! \T1[2]~input_o\ $end
$var wire 1 }! \T1[3]~input_o\ $end
$var wire 1 ~! \Equal0~1_combout\ $end
$var wire 1 !" \Equal0~2_combout\ $end
$var wire 1 "" \start~input_o\ $end
$var wire 1 #" \T6[0]~input_o\ $end
$var wire 1 $" \T6[1]~input_o\ $end
$var wire 1 %" \Equal5~0_combout\ $end
$var wire 1 &" \T6[3]~input_o\ $end
$var wire 1 '" \T6[2]~input_o\ $end
$var wire 1 (" \Equal5~1_combout\ $end
$var wire 1 )" \T6[4]~input_o\ $end
$var wire 1 *" \Equal5~2_combout\ $end
$var wire 1 +" \T5[2]~input_o\ $end
$var wire 1 ," \T5[3]~input_o\ $end
$var wire 1 -" \Equal4~1_combout\ $end
$var wire 1 ." \T5[0]~input_o\ $end
$var wire 1 /" \T5[1]~input_o\ $end
$var wire 1 0" \Equal4~0_combout\ $end
$var wire 1 1" \T5[4]~input_o\ $end
$var wire 1 2" \Equal4~2_combout\ $end
$var wire 1 3" \T4[0]~input_o\ $end
$var wire 1 4" \T4[1]~input_o\ $end
$var wire 1 5" \Equal3~0_combout\ $end
$var wire 1 6" \T4[4]~input_o\ $end
$var wire 1 7" \T4[2]~input_o\ $end
$var wire 1 8" \T4[3]~input_o\ $end
$var wire 1 9" \Equal3~1_combout\ $end
$var wire 1 :" \Equal3~2_combout\ $end
$var wire 1 ;" \Selector4~0_combout\ $end
$var wire 1 <" \rst~input_o\ $end
$var wire 1 =" \rst~inputclkctrl_outclk\ $end
$var wire 1 >" \edo.s4~q\ $end
$var wire 1 ?" \Selector5~0_combout\ $end
$var wire 1 @" \edo.s5~q\ $end
$var wire 1 A" \Selector6~0_combout\ $end
$var wire 1 B" \edo.s6~q\ $end
$var wire 1 C" \Selector0~0_combout\ $end
$var wire 1 D" \edo.s0~q\ $end
$var wire 1 E" \Selector1~0_combout\ $end
$var wire 1 F" \edo.s1~q\ $end
$var wire 1 G" \Selector2~0_combout\ $end
$var wire 1 H" \edo.s2~q\ $end
$var wire 1 I" \Selector3~0_combout\ $end
$var wire 1 J" \edo.s3~q\ $end
$var wire 1 K" \noct~input_o\ $end
$var wire 1 L" \EO~0_combout\ $end
$var wire 1 M" \EO~1_combout\ $end
$var wire 1 N" \Noche~0_combout\ $end
$var wire 1 O" \Noche~feeder_combout\ $end
$var wire 1 P" \Noche~q\ $end
$var wire 1 Q" \EO~2_combout\ $end
$var wire 1 R" \EO~3_combout\ $end
$var wire 1 S" \OE~0_combout\ $end
$var wire 1 T" \OE~1_combout\ $end
$var wire 1 U" \NS~0_combout\ $end
$var wire 1 V" \NS~1_combout\ $end
$var wire 1 W" \NS~2_combout\ $end
$var wire 1 X" \noct~inputclkctrl_outclk\ $end
$var wire 1 Y" \WideOr10~0_combout\ $end
$var wire 1 Z" \est[0]$latch~combout\ $end
$var wire 1 [" \est~0_combout\ $end
$var wire 1 \" \est[1]$latch~combout\ $end
$var wire 1 ]" \WideOr7~combout\ $end
$var wire 1 ^" \est[2]$latch~combout\ $end
$upscope $end
$upscope $end
$enddefinitions $end
#0
$dumpvars
0!
0.
16
1:
0Y
1Z
x[
1\
1]
1^
1_
1`
1a
0b
1c
1d
0e
0M!
zN!
zO!
0P!
0Q!
1R!
0S!
0T!
0U!
1V!
0W!
0X!
1Y!
0Z!
0[!
1\!
0]!
x^!
x_!
x`!
0a!
0b!
0c!
0d!
0e!
0f!
0g!
1h!
0i!
0j!
0k!
0l!
1m!
0n!
1o!
0p!
0q!
1r!
0s!
0t!
1u!
0v!
1w!
0x!
0y!
1z!
0{!
0|!
0}!
1~!
1!"
1""
0#"
0$"
1%"
0&"
0'"
1("
0)"
1*"
0+"
0,"
1-"
0."
0/"
10"
01"
12"
03"
04"
15"
06"
07"
08"
19"
1:"
0;"
1<"
1="
0>"
0?"
0@"
0A"
0B"
1C"
0D"
1E"
0F"
0G"
0H"
0I"
0J"
0K"
0L"
0M"
1N"
1O"
0P"
1Q"
0R"
0S"
0T"
0U"
1V"
0W"
0X"
1Y"
xZ"
0["
x\"
0]"
x^"
0"
0#
0$
0%
0&
0;
0<
0=
0>
0?
0@
0A
0B
0C
0D
0E
0F
0G
0H
0I
0J
0K
0L
0M
0N
0O
0P
0Q
0R
0S
0T
0U
0V
0W
0X
0f
0g
0h
0i
0j
0k
0l
0m
0n
0o
0p
0q
0r
0s
0t
0u
0v
0w
0x
0y
0z
0{
0|
0}
0~
0!!
0"!
0#!
0$!
0%!
0&!
0'!
0(!
0)!
0*!
0+!
1,!
0-!
0.!
0/!
10!
01!
02!
03!
14!
05!
06!
17!
08!
x9!
x:!
x;!
1I!
1J!
1K!
0L!
1A!
1B!
1C!
1D!
1E!
1F!
1G!
0H!
0<!
0=!
0>!
0?!
0@!
0'
1(
0)
0*
x+
x,
x-
0/
10
01
02
13
04
05
07
18
09
$end
#25000
1!
1b
1a!
1L!
1b!
1D"
1F"
1P"
0N"
0Q"
0V"
1G"
0E"
0Y"
0Y!
0\!
0R!
0V!
0O"
04!
07!
0,!
00!
00
08
0(
03
#50000
0!
1&
1?
1D
1I
1N
1S
1X
0b
1*!
1j
1o
1t
1y
1~
1%!
1#"
1."
13"
1s!
1g!
1y!
1e!
0a!
0L!
0b!
#75000
1!
1b
1a!
1L!
1b!
0F"
1H"
0P"
1N"
1V"
1I"
1Q"
1Y"
1["
0G"
1R!
1V!
1Y!
1\!
1O"
1,!
10!
14!
17!
1(
13
10
18
#100000
0!
0&
0?
0D
0I
0N
0S
0X
1%
1>
1C
1H
1M
1R
1W
0b
0*!
1)!
0j
1i
0o
1n
0t
1s
0y
1x
0~
1}
0%!
1$!
1$"
0#"
1/"
0."
14"
03"
1t!
0s!
1f!
0g!
1x!
0y!
1d!
0e!
0a!
0L!
0b!
#125000
1!
1b
1a!
1L!
1b!
0H"
1J"
1P"
0N"
0V"
1;"
0I"
0Q"
0Y"
0R!
0V!
0Y!
0\!
0O"
0,!
00!
04!
07!
0(
03
00
08
#150000
0!
1&
1?
1D
1I
1N
1S
1X
0b
1*!
1j
1o
1t
1y
1~
1%!
1#"
1."
13"
1s!
1g!
1y!
1e!
0a!
0L!
0b!
#175000
1!
1b
1a!
1L!
1b!
1>"
0J"
0P"
1N"
1Q"
1V"
0["
0;"
1?"
1Y"
1]"
1Y!
1\!
1R!
1V!
1O"
14!
17!
1,!
10!
10
18
1(
13
#200000
0!
0&
0?
0D
0I
0N
0S
0X
0%
0>
0C
0H
0M
0R
0W
1$
1=
1B
1G
1L
1Q
1V
0b
0*!
0)!
1(!
0j
0i
1h
0o
0n
1m
0t
0s
1r
0y
0x
1w
0~
0}
1|
0%!
0$!
1#!
1'"
0$"
0#"
1+"
0/"
0."
17"
04"
03"
1p!
0t!
0s!
1i!
0f!
0g!
1|!
0x!
0y!
1j!
0d!
0e!
0a!
0L!
0b!
#225000
1!
1b
1a!
1L!
1b!
0>"
1@"
1P"
0N"
0Q"
1A"
0V"
0?"
0Y"
0Y!
0\!
0R!
0V!
0O"
04!
07!
0,!
00!
00
08
0(
03
#250000
0!
1&
1?
1D
1I
1N
1S
1X
0b
1*!
1j
1o
1t
1y
1~
1%!
1#"
1."
13"
1s!
1g!
1y!
1e!
0a!
0L!
0b!
#275000
1!
1b
1a!
1L!
1b!
0@"
1B"
0P"
1N"
1Q"
0C"
0A"
1V"
1Y!
1\!
1R!
1V!
1O"
14!
17!
1,!
10!
10
18
1(
13
#300000
0!
0&
0?
0D
0I
0N
0S
0X
1%
1>
1C
1H
1M
1R
1W
0b
0*!
1)!
0j
1i
0o
1n
0t
1s
0y
1x
0~
1}
0%!
1$!
1$"
0#"
1/"
0."
14"
03"
1t!
0s!
1f!
0g!
1x!
0y!
1d!
0e!
0a!
0L!
0b!
#325000
1!
1b
1a!
1L!
1b!
0B"
0D"
1P"
0N"
0Q"
0V"
1E"
1Y"
1C"
0]"
0Y!
0\!
0R!
0V!
0O"
04!
07!
0,!
00!
00
08
0(
03
#350000
0!
1&
1?
1D
1I
1N
1S
1X
0b
1*!
1j
1o
1t
1y
1~
1%!
1#"
1."
13"
1s!
1g!
1y!
1e!
0a!
0L!
0b!
#375000
1!
1b
1a!
1L!
1b!
1D"
1F"
0P"
1N"
1Q"
1V"
1G"
0E"
0Y"
1Y!
1\!
1R!
1V!
1O"
14!
17!
1,!
10!
10
18
1(
13
#400000
0!
0&
0?
0D
0I
0N
0S
0X
0%
0>
0C
0H
0M
0R
0W
0$
0=
0B
0G
0L
0Q
0V
1#
1<
1A
1F
1K
1P
1U
0b
0*!
0)!
0(!
1'!
0j
0i
0h
1g
0o
0n
0m
1l
0t
0s
0r
1q
0y
0x
0w
1v
0~
0}
0|
1{
0%!
0$!
0#!
1"!
1&"
0'"
0$"
0#"
1,"
0+"
0/"
0."
18"
07"
04"
03"
1q!
0p!
0t!
0s!
1l!
0i!
0f!
0g!
1}!
0|!
0x!
0y!
1k!
0j!
0d!
0e!
0a!
0L!
0b!
#425000
1!
1b
1a!
1L!
1b!
0F"
1H"
1P"
0N"
0V"
1I"
0Q"
1Y"
1["
0G"
0R!
0V!
0Y!
0\!
0O"
0,!
00!
04!
07!
0(
03
00
08
#450000
0!
1&
1?
1D
1I
1N
1S
1X
0b
1*!
1j
1o
1t
1y
1~
1%!
1#"
1."
13"
1s!
1g!
1y!
1e!
0a!
0L!
0b!
#475000
1!
1b
1a!
1L!
1b!
0H"
1J"
0P"
1N"
1V"
1;"
0I"
1Q"
0Y"
1R!
1V!
1Y!
1\!
1O"
1,!
10!
14!
17!
1(
13
10
18
#500000
0!
0&
0?
0D
0I
0N
0S
0X
1%
1>
1C
1H
1M
1R
1W
0b
0*!
1)!
0j
1i
0o
1n
0t
1s
0y
1x
0~
1}
0%!
1$!
1$"
0#"
1/"
0."
14"
03"
1t!
0s!
1f!
0g!
1x!
0y!
1d!
0e!
0a!
0L!
0b!
#525000
1!
1b
1a!
1L!
1b!
1>"
0J"
1P"
0N"
0Q"
0V"
0["
0;"
1?"
1Y"
1]"
0Y!
0\!
0R!
0V!
0O"
04!
07!
0,!
00!
00
08
0(
03
#550000
0!
1&
1?
1D
1I
1N
1S
1X
0b
1*!
1j
1o
1t
1y
1~
1%!
1#"
1."
13"
1s!
1g!
1y!
1e!
0a!
0L!
0b!
#575000
1!
1b
1a!
1L!
1b!
0>"
1@"
0P"
1N"
1Q"
1A"
1V"
0?"
0Y"
1Y!
1\!
1R!
1V!
1O"
14!
17!
1,!
10!
10
18
1(
13
#600000
0!
0&
0?
0D
0I
0N
0S
0X
0%
0>
0C
0H
0M
0R
0W
1$
1=
1B
1G
1L
1Q
1V
0b
0*!
0)!
1(!
0j
0i
1h
0o
0n
1m
0t
0s
1r
0y
0x
1w
0~
0}
1|
0%!
0$!
1#!
1'"
0$"
0#"
1+"
0/"
0."
17"
04"
03"
1p!
0t!
0s!
1i!
0f!
0g!
1|!
0x!
0y!
1j!
0d!
0e!
0a!
0L!
0b!
#625000
1!
1b
1a!
1L!
1b!
0@"
1B"
1P"
0N"
0Q"
0C"
0A"
0V"
0Y!
0\!
0R!
0V!
0O"
04!
07!
0,!
00!
00
08
0(
03
#650000
0!
1&
1?
1D
1I
1N
1S
1X
0b
1*!
1j
1o
1t
1y
1~
1%!
1#"
1."
13"
1s!
1g!
1y!
1e!
0a!
0L!
0b!
#675000
1!
1b
1a!
1L!
1b!
0B"
0D"
0P"
1N"
1Q"
1V"
1E"
1Y"
1C"
0]"
1Y!
1\!
1R!
1V!
1O"
14!
17!
1,!
10!
10
18
1(
13
#700000
0!
0&
0?
0D
0I
0N
0S
0X
1%
1>
1C
1H
1M
1R
1W
0b
0*!
1)!
0j
1i
0o
1n
0t
1s
0y
1x
0~
1}
0%!
1$!
1$"
0#"
1/"
0."
14"
03"
1t!
0s!
1f!
0g!
1x!
0y!
1d!
0e!
0a!
0L!
0b!
#725000
1!
1b
1a!
1L!
1b!
1D"
1F"
1P"
0N"
0Q"
0V"
1G"
0E"
0Y"
0Y!
0\!
0R!
0V!
0O"
04!
07!
0,!
00!
00
08
0(
03
#750000
0!
1&
1?
1D
1I
1N
1S
1X
0b
1*!
1j
1o
1t
1y
1~
1%!
1#"
1."
13"
1s!
1g!
1y!
1e!
0a!
0L!
0b!
#775000
1!
1b
1a!
1L!
1b!
0F"
1H"
0P"
1N"
1V"
1I"
1Q"
1Y"
1["
0G"
1R!
1V!
1Y!
1\!
1O"
1,!
10!
14!
17!
1(
13
10
18
#800000
0!
0&
0?
0D
0I
0N
0S
0X
0%
0>
0C
0H
0M
0R
0W
0$
0=
0B
0G
0L
0Q
0V
0#
0<
0A
0F
0K
0P
0U
1"
1;
1@
1E
1J
1O
1T
0b
0*!
0)!
0(!
0'!
1&!
0j
0i
0h
0g
1f
0o
0n
0m
0l
1k
0t
0s
0r
0q
1p
0y
0x
0w
0v
1u
0~
0}
0|
0{
1z
0%!
0$!
0#!
0"!
1!!
1)"
0&"
0'"
0$"
0#"
11"
0,"
0+"
0/"
0."
16"
08"
07"
04"
03"
1v!
0q!
0p!
0t!
0s!
1n!
0l!
0i!
0f!
0g!
1{!
0}!
0|!
0x!
0y!
1c!
0k!
0j!
0d!
0e!
0a!
0L!
0b!
#825000
1!
1b
1a!
1L!
1b!
0H"
1J"
1P"
0N"
0V"
1;"
0I"
0Q"
0Y"
0R!
0V!
0Y!
0\!
0O"
0,!
00!
04!
07!
0(
03
00
08
#850000
0!
1&
1?
1D
1I
1N
1S
1X
0b
1*!
1j
1o
1t
1y
1~
1%!
1#"
1."
13"
1s!
1g!
1y!
1e!
0a!
0L!
0b!
#875000
1!
1b
1a!
1L!
1b!
1>"
0J"
0P"
1N"
1Q"
1V"
0["
0;"
1?"
1Y"
1]"
1Y!
1\!
1R!
1V!
1O"
14!
17!
1,!
10!
10
18
1(
13
#900000
0!
0&
0?
0D
0I
0N
0S
0X
1%
1>
1C
1H
1M
1R
1W
0b
0*!
1)!
0j
1i
0o
1n
0t
1s
0y
1x
0~
1}
0%!
1$!
1$"
0#"
1/"
0."
14"
03"
1t!
0s!
1f!
0g!
1x!
0y!
1d!
0e!
0a!
0L!
0b!
#925000
1!
1b
1a!
1L!
1b!
0>"
1@"
1P"
0N"
0Q"
1A"
0V"
0?"
0Y"
0Y!
0\!
0R!
0V!
0O"
04!
07!
0,!
00!
00
08
0(
03
#950000
0!
1&
1?
1D
1I
1N
1S
1X
0b
1*!
1j
1o
1t
1y
1~
1%!
1#"
1."
13"
1s!
1g!
1y!
1e!
0a!
0L!
0b!
#975000
1!
1b
1a!
1L!
1b!
0@"
1B"
0P"
1N"
1Q"
0C"
0A"
1V"
1Y!
1\!
1R!
1V!
1O"
14!
17!
1,!
10!
10
18
1(
13
