MAS1/simulation/qsim/MAS1.msim.vcd
$comment
	File created using the following command:
		vcd file MAS1.msim.vcd -direction
$end
$date
	Fri Feb 23 12:49:30 2024
$end
$version
	ModelSim Version 10.5b
$end
$timescale
	1ps
$end

$scope module mas1_vhd_vec_tst $end
$var wire 1 ! A [4] $end
$var wire 1 " A [3] $end
$var wire 1 # A [2] $end
$var wire 1 $ A [1] $end
$var wire 1 % A [0] $end
$var wire 1 & Z [4] $end
$var wire 1 ' Z [3] $end
$var wire 1 ( Z [2] $end
$var wire 1 ) Z [1] $end
$var wire 1 * Z [0] $end

$scope module i1 $end
$var wire 1 + gnd $end
$var wire 1 , vcc $end
$var wire 1 - unknown $end
$var wire 1 . devoe $end
$var wire 1 / devclrn $end
$var wire 1 0 devpor $end
$var wire 1 1 ww_devoe $end
$var wire 1 2 ww_devclrn $end
$var wire 1 3 ww_devpor $end
$var wire 1 4 ww_A [4] $end
$var wire 1 5 ww_A [3] $end
$var wire 1 6 ww_A [2] $end
$var wire 1 7 ww_A [1] $end
$var wire 1 8 ww_A [0] $end
$var wire 1 9 ww_Z [4] $end
$var wire 1 : ww_Z [3] $end
$var wire 1 ; ww_Z [2] $end
$var wire 1 < ww_Z [1] $end
$var wire 1 = ww_Z [0] $end
$var wire 1 > \~QUARTUS_CREATED_ADC1~_CHSEL_bus\ [4] $end
$var wire 1 ? \~QUARTUS_CREATED_ADC1~_CHSEL_bus\ [3] $end
$var wire 1 @ \~QUARTUS_CREATED_ADC1~_CHSEL_bus\ [2] $end
$var wire 1 A \~QUARTUS_CREATED_ADC1~_CHSEL_bus\ [1] $end
$var wire 1 B \~QUARTUS_CREATED_ADC1~_CHSEL_bus\ [0] $end
$var wire 1 C \~QUARTUS_CREATED_GND~I_combout\ $end
$var wire 1 D \~QUARTUS_CREATED_UNVM~~busy\ $end
$var wire 1 E \~QUARTUS_CREATED_ADC1~~eoc\ $end
$var wire 1 F \Z[0]~output_o\ $end
$var wire 1 G \Z[1]~output_o\ $end
$var wire 1 H \Z[2]~output_o\ $end
$var wire 1 I \Z[3]~output_o\ $end
$var wire 1 J \Z[4]~output_o\ $end
$var wire 1 K \A[0]~input_o\ $end
$var wire 1 L \A[1]~input_o\ $end
$var wire 1 M \I1|s~combout\ $end
$var wire 1 N \A[2]~input_o\ $end
$var wire 1 O \I2|s~combout\ $end
$var wire 1 P \A[3]~input_o\ $end
$var wire 1 Q \I3|s~combout\ $end
$var wire 1 R \I3|Cout~combout\ $end
$var wire 1 S \A[4]~input_o\ $end
$var wire 1 T \Z~0_combout\ $end
$var wire 1 U \ALT_INV_A[0]~input_o\ $end
$upscope $end
$upscope $end
$enddefinitions $end
#0
$dumpvars
0+
1,
x-
1.
1/
10
11
12
13
0C
zD
zE
1F
0G
0H
0I
0J
0K
0L
0M
0N
0O
0P
0Q
0R
0S
0T
1U
0!
0"
0#
0$
0%
04
05
06
07
08
09
0:
0;
0<
1=
0>
0?
0@
0A
0B
0&
0'
0(
0)
1*
$end
#50000
1%
18
1K
0U
1M
0F
1G
0=
1<
0*
1)
#100000
0%
1$
08
17
1L
0K
1U
1F
1=
1*
#150000
1%
18
1K
0U
0M
1O
0F
1H
0G
0=
1;
0<
0*
0)
1(
#200000
0%
0$
1#
08
07
16
1N
0L
0K
1U
1F
1=
1*
#250000
1%
18
1K
0U
1M
0F
1G
0=
1<
0*
1)
#300000
0%
1$
08
17
1L
0K
1U
1F
1=
1*
#350000
1%
18
1K
0U
0M
0O
1Q
0F
1I
0H
0G
0=
1:
0;
0<
0*
0)
0(
1'
#400000
0%
0$
0#
1"
08
07
06
15
1P
0N
0L
0K
1U
1F
1=
1*
#450000
1%
18
1K
0U
1M
0F
1G
0=
1<
0*
1)
#500000
0%
1$
08
17
1L
0K
1U
1F
1=
1*
#550000
1%
18
1K
0U
0M
1O
0F
1H
0G
0=
1;
0<
0*
0)
1(
#600000
0%
0$
1#
08
07
16
1N
0L
0K
1U
1F
1=
1*
#650000
1%
18
1K
0U
1M
0F
1G
0=
1<
0*
1)
#700000
0%
1$
08
17
1L
0K
1U
1F
1=
1*
#750000
1%
18
1K
0U
0M
0O
0Q
1R
0F
0I
0H
0G
1T
0=
0:
0;
0<
0*
1J
0)
0(
0'
19
1&
#800000
0%
0$
0#
0"
1!
08
07
06
05
14
1S
0P
0N
0L
0K
1U
0R
0T
1F
0J
1T
1=
09
1*
1J
0&
19
1&
#850000
1%
18
1K
0U
1M
0F
1G
0=
1<
0*
1)
#900000
0%
1$
08
17
1L
0K
1U
1F
1=
1*
#950000
1%
18
1K
0U
0M
1O
0F
1H
0G
0=
1;
0<
0*
0)
1(
