HAinicial/simulation/qsim/HA.msim.vcd
$comment
	File created using the following command:
		vcd file HA.msim.vcd -direction
$end
$date
	Tue Feb 13 23:48:35 2024
$end
$version
	ModelSim Version 10.5b
$end
$timescale
	1ps
$end

$scope module FA_vlg_vec_tst $end
$var reg 1 ! Ai $end
$var reg 1 " Bi $end
$var reg 1 # Ci $end
$var wire 1 $ Ci_plus $end
$var wire 1 % Si $end

$scope module i1 $end
$var wire 1 & gnd $end
$var wire 1 ' vcc $end
$var wire 1 ( unknown $end
$var tri1 1 ) devclrn $end
$var tri1 1 * devpor $end
$var tri1 1 + devoe $end
$var wire 1 , ~QUARTUS_CREATED_GND~I_combout $end
$var wire 1 - ~QUARTUS_CREATED_UNVM~~busy $end
$var wire 1 . ~QUARTUS_CREATED_ADC1~~eoc $end
$var wire 1 / Si~output_o $end
$var wire 1 0 Ci_plus~output_o $end
$var wire 1 1 Ci~input_o $end
$var wire 1 2 Bi~input_o $end
$var wire 1 3 Ai~input_o $end
$var wire 1 4 inst1|inst1~0_combout $end
$upscope $end
$upscope $end
$enddefinitions $end
#0
$dumpvars
0!
0"
0#
0$
0%
0&
1'
x(
1)
1*
1+
0,
z-
z.
0/
00
01
02
03
04
$end
#20000
1!
13
14
1/
1%
#40000
1"
0!
03
12
#60000
1#
1!
13
11
#80000
0"
0!
03
02
#100000
1!
13
04
0/
0%
#120000
0#
1"
0!
03
12
01
14
1/
1%
#140000
1!
13
04
0/
0%
#160000
0"
0!
03
02
#180000
1#
1!
13
11
#200000
1"
0!
03
12
#220000
1!
13
14
1/
1%
#240000
0#
0"
0!
03
02
01
04
0/
0%
#260000
1!
13
14
1/
1%
#280000
1"
0!
03
12
#300000
1#
1!
13
11
#320000
0"
0!
03
02
#340000
1!
13
04
0/
0%
#360000
0#
1"
0!
03
12
01
14
1/
1%
#380000
1!
13
04
0/
0%
#400000
0"
0!
03
02
#420000
1#
1!
13
11
#440000
1"
0!
03
12
#460000
1!
13
14
1/
1%
#480000
0#
0"
0!
03
02
01
04
0/
0%
#500000
1!
13
14
1/
1%
#520000
1"
0!
03
12
#540000
1#
1!
13
11
#560000
0"
0!
03
02
#580000
1!
13
04
0/
0%
#600000
0#
1"
0!
03
12
01
14
1/
1%
#620000
1!
13
04
0/
0%
#640000
0"
0!
03
02
#660000
1#
1!
13
11
#680000
1"
0!
03
12
#700000
1!
13
14
1/
1%
#720000
0#
0"
0!
03
02
01
04
0/
0%
#740000
1!
13
14
1/
1%
#760000
1"
0!
03
12
#780000
1#
1!
13
11
#800000
0"
0!
03
02
#820000
1!
13
04
0/
0%
#840000
0#
1"
0!
03
12
01
14
1/
1%
#860000
1!
13
04
0/
0%
#880000
0"
0!
03
02
#900000
1#
1!
13
11
#920000
1"
0!
03
12
#940000
1!
13
14
1/
1%
#960000
0#
0"
0!
03
02
01
04
0/
0%
#980000
1!
13
14
1/
1%
