BIN2BCD/simulation/qsim/BIN2BCD.msim.vcd
$comment
	File created using the following command:
		vcd file BIN2BCD.msim.vcd -direction
$end
$date
	Thu Feb 22 00:06:22 2024
$end
$version
	ModelSim Version 10.5b
$end
$timescale
	1ps
$end

$scope module bin2bcd_vhd_vec_tst $end
$var wire 1 ! BCD [3] $end
$var wire 1 " BCD [2] $end
$var wire 1 # BCD [1] $end
$var wire 1 $ BCD [0] $end
$var wire 1 % BIN [3] $end
$var wire 1 & BIN [2] $end
$var wire 1 ' BIN [1] $end
$var wire 1 ( BIN [0] $end

$scope module i1 $end
$var wire 1 ) gnd $end
$var wire 1 * vcc $end
$var wire 1 + unknown $end
$var wire 1 , devoe $end
$var wire 1 - devclrn $end
$var wire 1 . devpor $end
$var wire 1 / ww_devoe $end
$var wire 1 0 ww_devclrn $end
$var wire 1 1 ww_devpor $end
$var wire 1 2 ww_BIN [3] $end
$var wire 1 3 ww_BIN [2] $end
$var wire 1 4 ww_BIN [1] $end
$var wire 1 5 ww_BIN [0] $end
$var wire 1 6 ww_BCD [3] $end
$var wire 1 7 ww_BCD [2] $end
$var wire 1 8 ww_BCD [1] $end
$var wire 1 9 ww_BCD [0] $end
$var wire 1 : \~QUARTUS_CREATED_ADC1~_CHSEL_bus\ [4] $end
$var wire 1 ; \~QUARTUS_CREATED_ADC1~_CHSEL_bus\ [3] $end
$var wire 1 < \~QUARTUS_CREATED_ADC1~_CHSEL_bus\ [2] $end
$var wire 1 = \~QUARTUS_CREATED_ADC1~_CHSEL_bus\ [1] $end
$var wire 1 > \~QUARTUS_CREATED_ADC1~_CHSEL_bus\ [0] $end
$var wire 1 ? \~QUARTUS_CREATED_GND~I_combout\ $end
$var wire 1 @ \~QUARTUS_CREATED_UNVM~~busy\ $end
$var wire 1 A \~QUARTUS_CREATED_ADC1~~eoc\ $end
$var wire 1 B \BCD[0]~output_o\ $end
$var wire 1 C \BCD[1]~output_o\ $end
$var wire 1 D \BCD[2]~output_o\ $end
$var wire 1 E \BCD[3]~output_o\ $end
$var wire 1 F \BIN[1]~input_o\ $end
$var wire 1 G \BIN[0]~input_o\ $end
$var wire 1 H \BIN[3]~input_o\ $end
$var wire 1 I \BIN[2]~input_o\ $end
$var wire 1 J \Mux3~0_combout\ $end
$var wire 1 K \Mux2~0_combout\ $end
$var wire 1 L \Mux1~0_combout\ $end
$var wire 1 M \Mux0~0_combout\ $end
$upscope $end
$upscope $end
$enddefinitions $end
#0
$dumpvars
0)
1*
x+
1,
1-
1.
1/
10
11
0?
z@
zA
0B
0C
0D
0E
0F
0G
0H
0I
0J
0K
0L
0M
0%
0&
0'
0(
02
03
04
05
06
07
08
09
0:
0;
0<
0=
0>
0!
0"
0#
0$
$end
#50000
1(
15
1G
1J
1B
19
1$
#100000
0(
1'
05
14
1F
0G
0J
1K
1C
0B
18
09
0$
1#
#150000
1(
15
1G
1J
1B
19
1$
#200000
0(
0'
1&
05
04
13
1I
0F
0G
0K
0J
1L
1D
0B
0C
17
09
08
0$
0#
1"
#250000
1(
15
1G
1J
1B
19
1$
#300000
0(
1'
05
14
1F
0G
0J
1K
1C
0B
18
09
0$
1#
#350000
1(
15
1G
1J
1B
19
1$
#400000
0(
0'
0&
1%
05
04
03
12
1H
0I
0F
0G
0J
0K
0L
1M
1E
0D
0C
0B
16
07
08
09
0$
0#
0"
1!
#450000
1(
15
1G
1J
1B
19
1$
#500000
0(
1'
05
14
1F
0G
0J
0M
0E
0B
06
09
0$
0!
#550000
1(
15
1G
#600000
0(
0'
1&
05
04
13
1I
0F
0G
#650000
1(
15
1G
#700000
0(
1'
05
14
1F
0G
#750000
1(
15
1G
#800000
0(
0'
0&
0%
05
04
03
02
0H
0I
0F
0G
#850000
1(
15
1G
1J
1B
19
1$
#900000
0(
1'
05
14
1F
0G
0J
1K
1C
0B
18
09
0$
1#
#950000
1(
15
1G
1J
1B
19
1$
