HammingS1/simulation/qsim/HammingS1.msim.vcd
$comment
	File created using the following command:
		vcd file HammingS1.msim.vcd -direction
$end
$date
	Thu Nov 09 17:55:56 2023
$end
$version
	ModelSim Version 10.5b
$end
$timescale
	1ps
$end

$scope module HammingS1_vlg_vec_tst $end
$var reg 1 ! I0 $end
$var reg 1 " I2 $end
$var reg 1 # I3 $end
$var wire 1 $ S $end

$scope module i1 $end
$var wire 1 % gnd $end
$var wire 1 & vcc $end
$var wire 1 ' unknown $end
$var tri1 1 ( devclrn $end
$var tri1 1 ) devpor $end
$var tri1 1 * devoe $end
$var wire 1 + ~QUARTUS_CREATED_GND~I_combout $end
$var wire 1 , ~QUARTUS_CREATED_UNVM~~busy $end
$var wire 1 - ~QUARTUS_CREATED_ADC1~~eoc $end
$var wire 1 . S~output_o $end
$var wire 1 / I0~input_o $end
$var wire 1 0 I3~input_o $end
$var wire 1 1 I2~input_o $end
$var wire 1 2 inst7~0_combout $end
$upscope $end
$upscope $end
$enddefinitions $end
#0
$dumpvars
0!
0"
0#
0$
0%
1&
x'
1(
1)
1*
0+
z,
z-
0.
0/
00
01
02
$end
#25000
1!
1/
12
1.
1$
#50000
1"
0!
0/
11
#75000
1#
1!
1/
10
02
0.
0$
#100000
0"
0!
0/
01
12
1.
1$
#125000
1!
1/
02
0.
0$
#150000
0#
1"
0!
0/
11
00
12
1.
1$
#175000
1!
1/
02
0.
0$
#200000
0"
0!
0/
01
#225000
1#
1!
1/
10
#250000
1"
0!
0/
11
12
1.
1$
#275000
1!
1/
02
0.
0$
#300000
0#
0"
0!
0/
01
00
#325000
1!
1/
12
1.
1$
#350000
1"
0!
0/
11
#375000
1#
1!
1/
10
02
0.
0$
#400000
0"
0!
0/
01
12
1.
1$
#425000
1!
1/
02
0.
0$
#450000
0#
1"
0!
0/
11
00
12
1.
1$
#475000
1!
1/
02
0.
0$
#500000
0"
0!
0/
01
#525000
1#
1!
1/
10
#550000
1"
0!
0/
11
12
1.
1$
#575000
1!
1/
02
0.
0$
#600000
0#
0"
0!
0/
01
00
#625000
1!
1/
12
1.
1$
#650000
1"
0!
0/
11
#675000
1#
1!
1/
10
02
0.
0$
#700000
0"
0!
0/
01
12
1.
1$
#725000
1!
1/
02
0.
0$
#750000
0#
1"
0!
0/
11
00
12
1.
1$
#775000
1!
1/
02
0.
0$
#800000
0"
0!
0/
01
#825000
1#
1!
1/
10
#850000
1"
0!
0/
11
12
1.
1$
#875000
1!
1/
02
0.
0$
#900000
0#
0"
0!
0/
01
00
#925000
1!
1/
12
1.
1$
#950000
1"
0!
0/
11
#975000
1#
1!
1/
10
02
0.
0$
