CONT_5BITS/simulation/qsim/CONT_5BITS.msim.vcd
$comment
	File created using the following command:
		vcd file CONT_5BITS.msim.vcd -direction
$end
$date
	Fri Feb 23 14:31:09 2024
$end
$version
	ModelSim Version 10.5b
$end
$timescale
	1ps
$end

$scope module cont_5bits_vhd_vec_tst $end
$var wire 1 ! CLK $end
$var wire 1 " CNTA [4] $end
$var wire 1 # CNTA [3] $end
$var wire 1 $ CNTA [2] $end
$var wire 1 % CNTA [1] $end
$var wire 1 & CNTA [0] $end
$var wire 1 ' ENA $end
$var wire 1 ( RST $end

$scope module i1 $end
$var wire 1 ) gnd $end
$var wire 1 * vcc $end
$var wire 1 + unknown $end
$var wire 1 , devoe $end
$var wire 1 - devclrn $end
$var wire 1 . devpor $end
$var wire 1 / ww_devoe $end
$var wire 1 0 ww_devclrn $end
$var wire 1 1 ww_devpor $end
$var wire 1 2 ww_CLK $end
$var wire 1 3 ww_RST $end
$var wire 1 4 ww_ENA $end
$var wire 1 5 ww_CNTA [4] $end
$var wire 1 6 ww_CNTA [3] $end
$var wire 1 7 ww_CNTA [2] $end
$var wire 1 8 ww_CNTA [1] $end
$var wire 1 9 ww_CNTA [0] $end
$var wire 1 : \~QUARTUS_CREATED_ADC1~_CHSEL_bus\ [4] $end
$var wire 1 ; \~QUARTUS_CREATED_ADC1~_CHSEL_bus\ [3] $end
$var wire 1 < \~QUARTUS_CREATED_ADC1~_CHSEL_bus\ [2] $end
$var wire 1 = \~QUARTUS_CREATED_ADC1~_CHSEL_bus\ [1] $end
$var wire 1 > \~QUARTUS_CREATED_ADC1~_CHSEL_bus\ [0] $end
$var wire 1 ? \RST~inputclkctrl_INCLK_bus\ [3] $end
$var wire 1 @ \RST~inputclkctrl_INCLK_bus\ [2] $end
$var wire 1 A \RST~inputclkctrl_INCLK_bus\ [1] $end
$var wire 1 B \RST~inputclkctrl_INCLK_bus\ [0] $end
$var wire 1 C \CLK~inputclkctrl_INCLK_bus\ [3] $end
$var wire 1 D \CLK~inputclkctrl_INCLK_bus\ [2] $end
$var wire 1 E \CLK~inputclkctrl_INCLK_bus\ [1] $end
$var wire 1 F \CLK~inputclkctrl_INCLK_bus\ [0] $end
$var wire 1 G \~QUARTUS_CREATED_GND~I_combout\ $end
$var wire 1 H \~QUARTUS_CREATED_UNVM~~busy\ $end
$var wire 1 I \~QUARTUS_CREATED_ADC1~~eoc\ $end
$var wire 1 J \CNTA[0]~output_o\ $end
$var wire 1 K \CNTA[1]~output_o\ $end
$var wire 1 L \CNTA[2]~output_o\ $end
$var wire 1 M \CNTA[3]~output_o\ $end
$var wire 1 N \CNTA[4]~output_o\ $end
$var wire 1 O \CLK~input_o\ $end
$var wire 1 P \CLK~inputclkctrl_outclk\ $end
$var wire 1 Q \ENA~input_o\ $end
$var wire 1 R \Q[0]~0_combout\ $end
$var wire 1 S \RST~input_o\ $end
$var wire 1 T \RST~inputclkctrl_outclk\ $end
$var wire 1 U \Q[1]~1_combout\ $end
$var wire 1 V \Q[2]~2_combout\ $end
$var wire 1 W \Q[3]~3_combout\ $end
$var wire 1 X \Q[3]~4_combout\ $end
$var wire 1 Y \Q[4]~5_combout\ $end
$var wire 1 Z Q [4] $end
$var wire 1 [ Q [3] $end
$var wire 1 \ Q [2] $end
$var wire 1 ] Q [1] $end
$var wire 1 ^ Q [0] $end
$upscope $end
$upscope $end
$enddefinitions $end
#0
$dumpvars
0!
1'
0(
0)
1*
x+
1,
1-
1.
1/
10
11
02
03
14
0G
zH
zI
0J
0K
0L
0M
0N
0O
0P
1Q
1R
0S
0T
0U
0V
0W
0X
0Y
0"
0#
0$
0%
0&
05
06
07
08
09
0Z
0[
0\
0]
0^
1C
1D
1E
0F
1?
1@
1A
0B
0:
0;
0<
0=
0>
$end
#12000
1!
12
1O
1F
1P
#24000
0!
02
0O
0F
0P
#30000
1(
13
1S
1B
1T
#36000
1!
12
1O
1F
1P
1^
1J
0R
1U
19
1&
#48000
0!
02
0O
0F
0P
#60000
1!
12
1O
1F
1P
0^
1]
1K
0J
1R
18
09
0&
1%
#72000
0!
02
0O
0F
0P
#84000
1!
12
1O
1F
1P
1^
1J
0R
0U
1V
19
1&
#96000
0!
02
0O
0F
0P
#108000
1!
12
1O
1F
1P
0^
0]
1\
1L
0K
0J
1R
17
08
09
0&
0%
1$
#120000
0!
02
0O
0F
0P
#132000
1!
12
1O
1F
1P
1^
1J
0R
1U
19
1&
#144000
0!
02
0O
0F
0P
#156000
1!
12
1O
1F
1P
0^
1]
1K
0J
1R
18
09
0&
1%
#168000
0!
02
0O
0F
0P
#180000
1!
12
1O
1F
1P
1^
1J
0R
0U
0V
1W
19
1X
1&
#192000
0!
02
0O
0F
0P
#204000
1!
12
1O
1F
1P
0^
0]
0\
1[
1M
0L
0K
0J
0X
1Y
1R
0W
16
07
08
09
1X
0Y
0&
0%
0$
1#
#216000
0!
02
0O
0F
0P
#228000
1!
12
1O
1F
1P
1^
1J
0R
1U
19
1&
#240000
0!
02
0O
0F
0P
#252000
1!
12
1O
1F
1P
0^
1]
1K
0J
1R
18
09
0&
1%
#264000
0!
02
0O
0F
0P
#276000
1!
12
1O
1F
1P
1^
1J
0R
0U
1V
19
1&
#288000
0!
02
0O
0F
0P
#300000
1!
12
1O
1F
1P
0^
0]
1\
1L
0K
0J
1R
17
08
09
0&
0%
1$
#312000
0!
02
0O
0F
0P
#324000
1!
12
1O
1F
1P
1^
1J
0R
1U
19
1&
#336000
0!
02
0O
0F
0P
#348000
1!
12
1O
1F
1P
0^
1]
1K
0J
1R
18
09
0&
1%
#360000
0!
02
0O
0F
0P
#372000
1!
12
1O
1F
1P
1^
1J
0R
0U
0V
1W
19
0X
1Y
1&
#384000
0!
02
0O
0F
0P
#396000
1!
12
1O
1F
1P
0^
0]
0\
0[
1Z
1N
0M
0L
0K
0J
1X
1R
0W
15
06
07
08
09
0X
0&
0%
0$
0#
1"
#408000
0!
02
0O
0F
0P
#420000
1!
12
1O
1F
1P
1^
1J
0R
1U
19
1&
#432000
0!
02
0O
0F
0P
#444000
1!
12
1O
1F
1P
0^
1]
1K
0J
1R
18
09
0&
1%
#456000
0!
02
0O
0F
0P
#468000
1!
12
1O
1F
1P
1^
1J
0R
0U
1V
19
1&
#480000
0!
02
0O
0F
0P
#492000
1!
12
1O
1F
1P
0^
0]
1\
1L
0K
0J
1R
17
08
09
0&
0%
1$
#504000
0!
02
0O
0F
0P
#516000
1!
12
1O
1F
1P
1^
1J
0R
1U
19
1&
#528000
0!
02
0O
0F
0P
#540000
1!
12
1O
1F
1P
0^
1]
1K
0J
1R
18
09
0&
1%
#552000
0!
02
0O
0F
0P
#564000
1!
12
1O
1F
1P
1^
1J
0R
0U
0V
1W
19
1X
1&
#576000
0!
02
0O
0F
0P
#588000
1!
12
1O
1F
1P
0^
0]
0\
1[
1M
0L
0K
0J
0X
0Y
1R
0W
16
07
08
09
1X
1Y
0&
0%
0$
1#
#600000
0!
02
0O
0F
0P
#612000
1!
12
1O
1F
1P
1^
1J
0R
1U
19
1&
#624000
0!
02
0O
0F
0P
#636000
1!
12
1O
1F
1P
0^
1]
1K
0J
1R
18
09
0&
1%
#648000
0!
02
0O
0F
0P
#660000
1!
12
1O
1F
1P
1^
1J
0R
0U
1V
19
1&
#672000
0!
02
0O
0F
0P
#684000
1!
12
1O
1F
1P
0^
0]
1\
1L
0K
0J
1R
17
08
09
0&
0%
1$
#696000
0!
02
0O
0F
0P
#708000
1!
12
1O
1F
1P
1^
1J
0R
1U
19
1&
#720000
0!
02
0O
0F
0P
#732000
1!
12
1O
1F
1P
0^
1]
1K
0J
1R
18
09
0&
1%
#744000
0!
02
0O
0F
0P
#756000
1!
12
1O
1F
1P
1^
1J
0R
0U
0V
1W
19
0X
0Y
1&
#768000
0!
02
0O
0F
0P
#780000
1!
12
1O
1F
1P
0^
0]
0\
0[
0Z
0N
0M
0L
0K
0J
1X
1R
0W
05
06
07
08
09
0X
0&
0%
0$
0#
0"
#792000
0!
02
0O
0F
0P
#804000
1!
12
1O
1F
1P
1^
1J
0R
1U
19
1&
#816000
0!
02
0O
0F
0P
#828000
1!
12
1O
1F
1P
0^
1]
1K
0J
1R
18
09
0&
1%
#840000
0!
02
0O
0F
0P
#852000
1!
12
1O
1F
1P
1^
1J
0R
0U
1V
19
1&
#864000
0!
02
0O
0F
0P
#876000
1!
12
1O
1F
1P
0^
0]
1\
1L
0K
0J
1R
17
08
09
0&
0%
1$
#888000
0!
02
0O
0F
0P
#900000
1!
12
1O
1F
1P
1^
1J
0R
1U
19
1&
#912000
0!
02
0O
0F
0P
#924000
1!
12
1O
1F
1P
0^
1]
1K
0J
1R
18
09
0&
1%
#936000
0!
02
0O
0F
0P
#948000
1!
12
1O
1F
1P
1^
1J
0R
0U
0V
1W
19
1X
1&
#960000
0!
02
0O
0F
0P
#972000
1!
12
1O
1F
1P
0^
0]
0\
1[
1M
0L
0K
0J
0X
1Y
1R
0W
16
07
08
09
1X
0Y
0&
0%
0$
1#
#984000
0!
02
0O
0F
0P
#996000
1!
12
1O
1F
1P
1^
1J
0R
1U
19
1&
