DivisorDeCorriente/simulation/qsim/DivisorDeCorriente.msim.vcd
$comment
	File created using the following command:
		vcd file DivisorDeCorriente.msim.vcd -direction
$end
$date
	Wed Nov 15 21:49:14 2023
$end
$version
	ModelSim Version 10.5b
$end
$timescale
	1ps
$end

$scope module DivisorDeCorriente_vlg_vec_tst $end
$var reg 1 ! CLK $end
$var wire 1 " Q [4] $end
$var wire 1 # Q [3] $end
$var wire 1 $ Q [2] $end
$var wire 1 % Q [1] $end
$var wire 1 & Q [0] $end

$scope module i1 $end
$var wire 1 ' gnd $end
$var wire 1 ( vcc $end
$var wire 1 ) unknown $end
$var tri1 1 * devclrn $end
$var tri1 1 + devpor $end
$var tri1 1 , devoe $end
$var wire 1 - ~QUARTUS_CREATED_GND~I_combout $end
$var wire 1 . ~QUARTUS_CREATED_UNVM~~busy $end
$var wire 1 / ~QUARTUS_CREATED_ADC1~~eoc $end
$var wire 1 0 Q[4]~output_o $end
$var wire 1 1 Q[3]~output_o $end
$var wire 1 2 Q[2]~output_o $end
$var wire 1 3 Q[1]~output_o $end
$var wire 1 4 Q[0]~output_o $end
$var wire 1 5 CLK~input_o $end
$var wire 1 6 inst~0_combout $end
$var wire 1 7 inst~q $end
$var wire 1 8 inst1~0_combout $end
$var wire 1 9 inst1~feeder_combout $end
$var wire 1 : inst1~q $end
$var wire 1 ; inst2~0_combout $end
$var wire 1 < inst2~feeder_combout $end
$var wire 1 = inst2~q $end
$var wire 1 > inst3~0_combout $end
$var wire 1 ? inst3~feeder_combout $end
$var wire 1 @ inst3~q $end
$var wire 1 A inst4~0_combout $end
$var wire 1 B inst4~q $end
$upscope $end
$upscope $end
$enddefinitions $end
#0
$dumpvars
0!
0&
0%
0$
0#
0"
0'
1(
x)
1*
1+
1,
0-
z.
z/
00
01
02
03
04
05
16
07
18
19
0:
1;
1<
0=
1>
1?
0@
1A
0B
$end
#15000
1!
15
17
14
06
1&
#30000
0!
05
#45000
1!
15
07
04
16
0&
1:
13
08
1%
09
#60000
0!
05
#75000
1!
15
17
14
06
1&
#90000
0!
05
#105000
1!
15
07
04
16
0&
0:
03
18
0%
19
1=
12
0;
1$
0<
#120000
0!
05
#135000
1!
15
17
14
06
1&
#150000
0!
05
#165000
1!
15
07
04
16
0&
1:
13
08
1%
09
#180000
0!
05
#195000
1!
15
17
14
06
1&
#210000
0!
05
#225000
1!
15
07
04
16
0&
0:
03
18
0%
19
0=
02
1;
0$
1<
1@
11
0>
1#
0?
#240000
0!
05
#255000
1!
15
17
14
06
1&
#270000
0!
05
#285000
1!
15
07
04
16
0&
1:
13
08
1%
09
#300000
0!
05
#315000
1!
15
17
14
06
1&
#330000
0!
05
#345000
1!
15
07
04
16
0&
0:
03
18
0%
19
1=
12
0;
1$
0<
#360000
0!
05
#375000
1!
15
17
14
06
1&
#390000
0!
05
#405000
1!
15
07
04
16
0&
1:
13
08
1%
09
#420000
0!
05
#435000
1!
15
17
14
06
1&
#450000
0!
05
#465000
1!
15
07
04
16
0&
0:
03
18
0%
19
0=
02
1;
0$
1<
0@
01
1>
0#
1?
1B
10
1"
0A
#480000
0!
05
#495000
1!
15
17
14
06
1&
#510000
0!
05
#525000
1!
15
07
04
16
0&
1:
13
08
1%
09
#540000
0!
05
#555000
1!
15
17
14
06
1&
#570000
0!
05
#585000
1!
15
07
04
16
0&
0:
03
18
0%
19
1=
12
0;
1$
0<
#600000
0!
05
#615000
1!
15
17
14
06
1&
#630000
0!
05
#645000
1!
15
07
04
16
0&
1:
13
08
1%
09
#660000
0!
05
#675000
1!
15
17
14
06
1&
#690000
0!
05
#705000
1!
15
07
04
16
0&
0:
03
18
0%
19
0=
02
1;
0$
1<
1@
11
0>
1#
0?
#720000
0!
05
#735000
1!
15
17
14
06
1&
#750000
0!
05
#765000
1!
15
07
04
16
0&
1:
13
08
1%
09
#780000
0!
05
#795000
1!
15
17
14
06
1&
#810000
0!
05
#825000
1!
15
07
04
16
0&
0:
03
18
0%
19
1=
12
0;
1$
0<
#840000
0!
05
#855000
1!
15
17
14
06
1&
#870000
0!
05
#885000
1!
15
07
04
16
0&
1:
13
08
1%
09
#900000
0!
05
#915000
1!
15
17
14
06
1&
#930000
0!
05
#945000
1!
15
07
04
16
0&
0:
03
18
0%
19
0=
02
1;
0$
1<
0@
01
1>
0#
1?
0B
00
0"
1A
#960000
0!
05
#975000
1!
15
17
14
06
1&
#990000
0!
05
