ContadorMod16T/simulation/qsim/ContadorMod16T.msim.vcd
$comment
	File created using the following command:
		vcd file ContadorMod16T.msim.vcd -direction
$end
$date
	Mon Nov 13 23:50:38 2023
$end
$version
	ModelSim Version 10.5b
$end
$timescale
	1ps
$end

$scope module ContadorMod16T_vlg_vec_tst $end
$var reg 1 ! CLK $end
$var wire 1 " C [3] $end
$var wire 1 # C [2] $end
$var wire 1 $ C [1] $end
$var wire 1 % C [0] $end

$scope module i1 $end
$var wire 1 & gnd $end
$var wire 1 ' vcc $end
$var wire 1 ( unknown $end
$var tri1 1 ) devclrn $end
$var tri1 1 * devpor $end
$var tri1 1 + devoe $end
$var wire 1 , ~QUARTUS_CREATED_GND~I_combout $end
$var wire 1 - ~QUARTUS_CREATED_UNVM~~busy $end
$var wire 1 . ~QUARTUS_CREATED_ADC1~~eoc $end
$var wire 1 / C[3]~output_o $end
$var wire 1 0 C[2]~output_o $end
$var wire 1 1 C[1]~output_o $end
$var wire 1 2 C[0]~output_o $end
$var wire 1 3 CLK~input_o $end
$var wire 1 4 inst~0_combout $end
$var wire 1 5 inst~q $end
$var wire 1 6 inst1~0_combout $end
$var wire 1 7 inst1~feeder_combout $end
$var wire 1 8 inst1~q $end
$var wire 1 9 inst3~0_combout $end
$var wire 1 : inst3~feeder_combout $end
$var wire 1 ; inst3~q $end
$var wire 1 < inst4~0_combout $end
$var wire 1 = inst4~q $end
$upscope $end
$upscope $end
$enddefinitions $end
#0
$dumpvars
0!
0%
0$
0#
0"
0&
1'
x(
1)
1*
1+
0,
z-
z.
0/
00
01
02
03
14
05
16
17
08
19
1:
0;
1<
0=
$end
#25000
1!
13
15
12
04
1%
#50000
0!
03
#75000
1!
13
05
02
14
0%
18
11
06
1$
07
#100000
0!
03
#125000
1!
13
15
12
04
1%
#150000
0!
03
#175000
1!
13
05
02
14
0%
08
01
16
0$
17
1;
10
09
1#
0:
#200000
0!
03
#225000
1!
13
15
12
04
1%
#250000
0!
03
#275000
1!
13
05
02
14
0%
18
11
06
1$
07
#300000
0!
03
#325000
1!
13
15
12
04
1%
#350000
0!
03
#375000
1!
13
05
02
14
0%
08
01
16
0$
17
0;
00
19
0#
1:
1=
1/
1"
0<
#400000
0!
03
#425000
1!
13
15
12
04
1%
#450000
0!
03
#475000
1!
13
05
02
14
0%
18
11
06
1$
07
#500000
0!
03
#525000
1!
13
15
12
04
1%
#550000
0!
03
#575000
1!
13
05
02
14
0%
08
01
16
0$
17
1;
10
09
1#
0:
#600000
0!
03
#625000
1!
13
15
12
04
1%
#650000
0!
03
#675000
1!
13
05
02
14
0%
18
11
06
1$
07
#700000
0!
03
#725000
1!
13
15
12
04
1%
#750000
0!
03
#775000
1!
13
05
02
14
0%
08
01
16
0$
17
0;
00
19
0#
1:
0=
0/
0"
1<
#800000
0!
03
#825000
1!
13
15
12
04
1%
#850000
0!
03
#875000
1!
13
05
02
14
0%
18
11
06
1$
07
#900000
0!
03
#925000
1!
13
15
12
04
1%
#950000
0!
03
#975000
1!
13
05
02
14
0%
08
01
16
0$
17
1;
10
09
1#
0:
