QUIZ/simulation/qsim/QUIZ.msim.vcd
$comment
	File created using the following command:
		vcd file QUIZ.msim.vcd -direction
$end
$date
	Sat Nov 11 11:48:38 2023
$end
$version
	ModelSim Version 10.5b
$end
$timescale
	1ps
$end

$scope module QUIZ_vlg_vec_tst $end
$var reg 1 ! M $end
$var reg 1 " P1 $end
$var reg 1 # P2 $end
$var reg 1 $ P3 $end
$var wire 1 % S $end

$scope module i1 $end
$var wire 1 & gnd $end
$var wire 1 ' vcc $end
$var wire 1 ( unknown $end
$var tri1 1 ) devclrn $end
$var tri1 1 * devpor $end
$var tri1 1 + devoe $end
$var wire 1 , ~QUARTUS_CREATED_GND~I_combout $end
$var wire 1 - ~QUARTUS_CREATED_UNVM~~busy $end
$var wire 1 . ~QUARTUS_CREATED_ADC1~~eoc $end
$var wire 1 / S~output_o $end
$var wire 1 0 P2~input_o $end
$var wire 1 1 M~input_o $end
$var wire 1 2 P3~input_o $end
$var wire 1 3 P1~input_o $end
$var wire 1 4 inst~0_combout $end
$upscope $end
$upscope $end
$enddefinitions $end
#0
$dumpvars
0!
0"
0#
0$
0%
0&
1'
x(
1)
1*
1+
0,
z-
z.
0/
00
01
02
03
04
$end
#25000
1!
11
#50000
1"
0!
01
13
14
1/
1%
#75000
1#
1!
11
10
04
0/
0%
#100000
1$
0"
0!
01
03
12
14
1/
1%
#125000
1!
11
04
0/
0%
#150000
0#
1"
0!
01
13
00
14
1/
1%
#175000
1!
11
04
0/
0%
#200000
0$
0"
0!
01
03
02
#225000
1#
1!
11
10
#250000
1"
0!
01
13
14
1/
1%
#275000
1!
11
04
0/
0%
#300000
1$
0#
0"
0!
01
03
00
12
14
1/
1%
#325000
1!
11
04
0/
0%
#350000
1"
0!
01
13
14
1/
1%
#375000
1#
1!
11
10
04
0/
0%
#400000
0$
0"
0!
01
03
02
14
1/
1%
#425000
1!
11
04
0/
0%
#450000
0#
1"
0!
01
13
00
14
1/
1%
#475000
1!
11
04
0/
0%
#500000
1$
0"
0!
01
03
12
14
1/
1%
#525000
1#
1!
11
10
04
0/
0%
#550000
1"
0!
01
13
14
1/
1%
#575000
1!
11
04
0/
0%
#600000
0$
0#
0"
0!
01
03
00
02
#625000
1!
11
#650000
1"
0!
01
13
14
1/
1%
#675000
1#
1!
11
10
04
0/
0%
#700000
1$
0"
0!
01
03
12
14
1/
1%
#725000
1!
11
04
0/
0%
#750000
0#
1"
0!
01
13
00
14
1/
1%
#775000
1!
11
04
0/
0%
#800000
0$
0"
0!
01
03
02
#825000
1#
1!
11
10
#850000
1"
0!
01
13
14
1/
1%
#875000
1!
11
04
0/
0%
#900000
1$
0#
0"
0!
01
03
00
12
14
1/
1%
#925000
1!
11
04
0/
0%
#950000
1"
0!
01
13
14
1/
1%
#975000
1#
1!
11
10
04
0/
0%
