MULT_4BITS/simulation/qsim/MULT_4BITS.msim.vcd
$comment
	File created using the following command:
		vcd file MULT_4BITS.msim.vcd -direction
$end
$date
	Fri Feb 23 11:32:27 2024
$end
$version
	ModelSim Version 10.5b
$end
$timescale
	1ps
$end

$scope module mult_4bits_vhd_vec_tst $end
$var wire 1 ! HEX [6] $end
$var wire 1 " HEX [5] $end
$var wire 1 # HEX [4] $end
$var wire 1 $ HEX [3] $end
$var wire 1 % HEX [2] $end
$var wire 1 & HEX [1] $end
$var wire 1 ' HEX [0] $end
$var wire 1 ( SW [7] $end
$var wire 1 ) SW [6] $end
$var wire 1 * SW [5] $end
$var wire 1 + SW [4] $end
$var wire 1 , SW [3] $end
$var wire 1 - SW [2] $end
$var wire 1 . SW [1] $end
$var wire 1 / SW [0] $end

$scope module i1 $end
$var wire 1 0 gnd $end
$var wire 1 1 vcc $end
$var wire 1 2 unknown $end
$var wire 1 3 devoe $end
$var wire 1 4 devclrn $end
$var wire 1 5 devpor $end
$var wire 1 6 ww_devoe $end
$var wire 1 7 ww_devclrn $end
$var wire 1 8 ww_devpor $end
$var wire 1 9 ww_SW [7] $end
$var wire 1 : ww_SW [6] $end
$var wire 1 ; ww_SW [5] $end
$var wire 1 < ww_SW [4] $end
$var wire 1 = ww_SW [3] $end
$var wire 1 > ww_SW [2] $end
$var wire 1 ? ww_SW [1] $end
$var wire 1 @ ww_SW [0] $end
$var wire 1 A ww_HEX [6] $end
$var wire 1 B ww_HEX [5] $end
$var wire 1 C ww_HEX [4] $end
$var wire 1 D ww_HEX [3] $end
$var wire 1 E ww_HEX [2] $end
$var wire 1 F ww_HEX [1] $end
$var wire 1 G ww_HEX [0] $end
$var wire 1 H \~QUARTUS_CREATED_ADC1~_CHSEL_bus\ [4] $end
$var wire 1 I \~QUARTUS_CREATED_ADC1~_CHSEL_bus\ [3] $end
$var wire 1 J \~QUARTUS_CREATED_ADC1~_CHSEL_bus\ [2] $end
$var wire 1 K \~QUARTUS_CREATED_ADC1~_CHSEL_bus\ [1] $end
$var wire 1 L \~QUARTUS_CREATED_ADC1~_CHSEL_bus\ [0] $end
$var wire 1 M \~QUARTUS_CREATED_GND~I_combout\ $end
$var wire 1 N \~QUARTUS_CREATED_UNVM~~busy\ $end
$var wire 1 O \~QUARTUS_CREATED_ADC1~~eoc\ $end
$var wire 1 P \HEX[0]~output_o\ $end
$var wire 1 Q \HEX[1]~output_o\ $end
$var wire 1 R \HEX[2]~output_o\ $end
$var wire 1 S \HEX[3]~output_o\ $end
$var wire 1 T \HEX[4]~output_o\ $end
$var wire 1 U \HEX[5]~output_o\ $end
$var wire 1 V \HEX[6]~output_o\ $end
$var wire 1 W \SW[0]~input_o\ $end
$var wire 1 X \SW[4]~input_o\ $end
$var wire 1 Y \SW[5]~input_o\ $end
$var wire 1 Z \SW[1]~input_o\ $end
$var wire 1 [ \I0|I1|I0|s~combout\ $end
$var wire 1 \ \SW[2]~input_o\ $end
$var wire 1 ] \I0|I1|I1|HA1|s~4_combout\ $end
$var wire 1 ^ \I0|I1|I1|HA1|s~5_combout\ $end
$var wire 1 _ \SW[6]~input_o\ $end
$var wire 1 ` \I0|I1|I6|s~combout\ $end
$var wire 1 a \SW[7]~input_o\ $end
$var wire 1 b \SW[3]~input_o\ $end
$var wire 1 c \I0|I1|I11|HA1|s~0_combout\ $end
$var wire 1 d \I0|I1|I11|HA1|s~1_combout\ $end
$var wire 1 e \I0|I1|I1|Cout~3_combout\ $end
$var wire 1 f \I0|I1|I1|Cout~9_combout\ $end
$var wire 1 g \I0|I1|I11|HA1|s~2_combout\ $end
$var wire 1 h \I0|I1|I11|HA1|s~combout\ $end
$var wire 1 i \I0|I0|Coef[0]~0_combout\ $end
$var wire 1 j \I1|Mux6~0_combout\ $end
$var wire 1 k \I1|Mux5~0_combout\ $end
$var wire 1 l \I1|Mux4~0_combout\ $end
$var wire 1 m \I1|Mux3~0_combout\ $end
$var wire 1 n \I1|Mux2~0_combout\ $end
$var wire 1 o \I1|Mux1~0_combout\ $end
$var wire 1 p \I1|Mux0~0_combout\ $end
$var wire 1 q \I1|ALT_INV_Mux0~0_combout\ $end
$upscope $end
$upscope $end
$enddefinitions $end
#0
$dumpvars
00
11
x2
13
14
15
16
17
18
0M
zN
zO
0P
0Q
0R
0S
0T
0U
1V
0W
0X
0Y
0Z
0[
0\
0]
0^
0_
0`
0a
0b
1c
1d
0e
0f
0g
1h
0i
0j
0k
0l
0m
0n
0o
0p
1q
0(
0)
0*
0+
0,
0-
0.
0/
1!
0"
0#
0$
0%
0&
0'
09
0:
0;
0<
0=
0>
0?
0@
1A
0B
0C
0D
0E
0F
0G
0H
0I
0J
0K
0L
$end
#50000
1/
1@
1W
1e
#100000
0/
1.
0@
1?
1Z
0W
0e
#150000
1/
1@
1W
1e
#200000
0/
0.
1-
0@
0?
1>
1\
0Z
0W
1]
#250000
1/
1@
1W
#300000
0/
1.
0@
1?
1Z
0W
#350000
1/
1@
1W
#400000
0/
0.
0-
1,
0@
0?
0>
1=
1b
0\
0Z
0W
0]
0e
#450000
1/
1@
1W
1e
#500000
0/
1.
0@
1?
1Z
0W
0e
#550000
1/
1@
1W
1e
#600000
0/
0.
1-
0@
0?
1>
1\
0Z
0W
1]
#650000
1/
1@
1W
#700000
0/
1.
0@
1?
1Z
0W
#750000
1/
1@
1W
#800000
0/
0.
0-
0,
1+
0@
0?
0>
0=
1<
1X
0b
0\
0Z
0W
0]
0e
1^
1`
0^
0`
1j
1m
1n
1p
0q
1T
1S
1P
0j
0m
0n
0p
0V
1q
1C
1D
1G
0T
0S
0P
0A
1'
1$
1#
1V
0C
0D
0G
0!
1A
0'
0$
0#
1!
#850000
1/
1@
1W
1e
1i
1j
1m
1n
1o
1U
1T
1S
1P
1B
1C
1D
1G
1'
1$
1#
1"
#900000
0/
1.
0@
1?
1Z
0W
0e
0i
1[
0j
1l
0m
0n
1p
0q
0T
0S
1R
0P
0V
0C
0D
1E
0G
0A
0'
1%
0$
0#
0!
#950000
1/
1@
1W
1e
1i
0l
1n
1T
0R
1C
0E
0%
1#
