CONTADOR_800/simulation/qsim/CONTADOR_800.msim.vcd
$comment
	File created using the following command:
		vcd file CONTADOR_800.msim.vcd -direction
$end
$date
	Wed Mar 06 17:49:54 2024
$end
$version
	ModelSim Version 10.5b
$end
$timescale
	1ps
$end

$scope module contador_800_vhd_vec_tst $end
$var wire 1 ! CLK $end
$var wire 1 " CNT [9] $end
$var wire 1 # CNT [8] $end
$var wire 1 $ CNT [7] $end
$var wire 1 % CNT [6] $end
$var wire 1 & CNT [5] $end
$var wire 1 ' CNT [4] $end
$var wire 1 ( CNT [3] $end
$var wire 1 ) CNT [2] $end
$var wire 1 * CNT [1] $end
$var wire 1 + CNT [0] $end
$var wire 1 , OV $end
$var wire 1 - RST $end

$scope module i1 $end
$var wire 1 . gnd $end
$var wire 1 / vcc $end
$var wire 1 0 unknown $end
$var wire 1 1 devoe $end
$var wire 1 2 devclrn $end
$var wire 1 3 devpor $end
$var wire 1 4 ww_devoe $end
$var wire 1 5 ww_devclrn $end
$var wire 1 6 ww_devpor $end
$var wire 1 7 ww_CLK $end
$var wire 1 8 ww_RST $end
$var wire 1 9 ww_CNT [9] $end
$var wire 1 : ww_CNT [8] $end
$var wire 1 ; ww_CNT [7] $end
$var wire 1 < ww_CNT [6] $end
$var wire 1 = ww_CNT [5] $end
$var wire 1 > ww_CNT [4] $end
$var wire 1 ? ww_CNT [3] $end
$var wire 1 @ ww_CNT [2] $end
$var wire 1 A ww_CNT [1] $end
$var wire 1 B ww_CNT [0] $end
$var wire 1 C ww_OV $end
$var wire 1 D \~QUARTUS_CREATED_ADC1~_CHSEL_bus\ [4] $end
$var wire 1 E \~QUARTUS_CREATED_ADC1~_CHSEL_bus\ [3] $end
$var wire 1 F \~QUARTUS_CREATED_ADC1~_CHSEL_bus\ [2] $end
$var wire 1 G \~QUARTUS_CREATED_ADC1~_CHSEL_bus\ [1] $end
$var wire 1 H \~QUARTUS_CREATED_ADC1~_CHSEL_bus\ [0] $end
$var wire 1 I \CLK~inputclkctrl_INCLK_bus\ [3] $end
$var wire 1 J \CLK~inputclkctrl_INCLK_bus\ [2] $end
$var wire 1 K \CLK~inputclkctrl_INCLK_bus\ [1] $end
$var wire 1 L \CLK~inputclkctrl_INCLK_bus\ [0] $end
$var wire 1 M \~QUARTUS_CREATED_GND~I_combout\ $end
$var wire 1 N \~QUARTUS_CREATED_UNVM~~busy\ $end
$var wire 1 O \~QUARTUS_CREATED_ADC1~~eoc\ $end
$var wire 1 P \CNT[0]~output_o\ $end
$var wire 1 Q \CNT[1]~output_o\ $end
$var wire 1 R \CNT[2]~output_o\ $end
$var wire 1 S \CNT[3]~output_o\ $end
$var wire 1 T \CNT[4]~output_o\ $end
$var wire 1 U \CNT[5]~output_o\ $end
$var wire 1 V \CNT[6]~output_o\ $end
$var wire 1 W \CNT[7]~output_o\ $end
$var wire 1 X \CNT[8]~output_o\ $end
$var wire 1 Y \CNT[9]~output_o\ $end
$var wire 1 Z \OV~output_o\ $end
$var wire 1 [ \CLK~input_o\ $end
$var wire 1 \ \CLK~inputclkctrl_outclk\ $end
$var wire 1 ] \Q[0]~10_combout\ $end
$var wire 1 ^ \Q[1]~0_combout\ $end
$var wire 1 _ \Q[2]~1_combout\ $end
$var wire 1 ` \Q[3]~2_combout\ $end
$var wire 1 a \I0|I3|Cout~combout\ $end
$var wire 1 b \Q[4]~3_combout\ $end
$var wire 1 c \Q[5]~4_combout\ $end
$var wire 1 d \Q[6]~5_combout\ $end
$var wire 1 e \I0|I6|Cout~combout\ $end
$var wire 1 f \Q[7]~6_combout\ $end
$var wire 1 g \Q[8]~7_combout\ $end
$var wire 1 h \Q[9]~8_combout\ $end
$var wire 1 i \Q[9]~9_combout\ $end
$var wire 1 j \Equal0~0_combout\ $end
$var wire 1 k \RST~input_o\ $end
$var wire 1 l \Equal0~2_combout\ $end
$var wire 1 m \Equal0~1_combout\ $end
$var wire 1 n \P1~0_combout\ $end
$var wire 1 o \OV~reg0feeder_combout\ $end
$var wire 1 p \OV~reg0_q\ $end
$var wire 1 q Q [9] $end
$var wire 1 r Q [8] $end
$var wire 1 s Q [7] $end
$var wire 1 t Q [6] $end
$var wire 1 u Q [5] $end
$var wire 1 v Q [4] $end
$var wire 1 w Q [3] $end
$var wire 1 x Q [2] $end
$var wire 1 y Q [1] $end
$var wire 1 z Q [0] $end
$var wire 1 { \ALT_INV_P1~0_combout\ $end
$var wire 1 | \ALT_INV_OV~reg0_q\ $end
$upscope $end
$upscope $end
$enddefinitions $end
#0
$dumpvars
0!
1,
0-
0.
1/
x0
11
12
13
14
15
16
07
08
1C
0M
zN
zO
0P
0Q
0R
0S
0T
0U
0V
0W
0X
0Y
1Z
0[
0\
1]
0^
0_
0`
0a
0b
0c
0d
0e
0f
0g
1h
0i
0j
0k
1l
0m
0n
1o
0p
1{
1|
09
0:
0;
0<
0=
0>
0?
0@
0A
0B
0q
0r
0s
0t
0u
0v
0w
0x
0y
0z
1I
1J
1K
0L
0D
0E
0F
0G
0H
0"
0#
0$
0%
0&
0'
0(
0)
0*
0+
$end
#500
1!
17
1[
1L
1\
1z
1p
0|
1P
0]
1^
0l
0Z
1B
0C
1+
0,
#1000
0!
07
0[
0L
0\
#1500
1!
17
1[
1L
1\
1y
0z
0P
1Q
1]
0B
1A
0+
1*
#2000
0!
07
0[
0L
0\
#2500
1!
17
1[
1L
1\
1z
1P
0]
0^
1_
1B
1+
#3000
0!
07
0[
0L
0\
#3500
1!
17
1[
1L
1\
0y
1x
0z
0P
1R
0Q
1]
1l
0B
1@
0A
0+
0*
1)
#4000
0!
07
0[
0L
0\
#4500
1!
17
1[
1L
1\
1z
1P
0]
1^
0l
1B
1+
#5000
0!
07
0[
0L
0\
#5500
1!
17
1[
1L
1\
1y
0z
0P
1Q
1]
0B
1A
0+
1*
#6000
0!
07
0[
0L
0\
#6500
1!
17
1[
1L
1\
1z
1P
0]
0^
0_
1`
1B
1+
#7000
0!
07
0[
0L
0\
#7500
1!
17
1[
1L
1\
0y
0x
1w
0z
0P
1S
0R
0Q
1]
1l
0B
1?
0@
0A
0+
0*
0)
1(
#8000
0!
07
0[
0L
0\
#8500
1!
17
1[
1L
1\
1z
1P
0]
1^
0l
1B
1+
#9000
0!
07
0[
0L
0\
#9500
1!
17
1[
1L
1\
1y
0z
0P
1Q
1]
0B
1A
0+
1*
#10000
0!
07
0[
0L
0\
#10500
1!
17
1[
1L
1\
1z
1P
0]
0^
1_
1B
1+
#11000
0!
07
0[
0L
0\
#11500
1!
17
1[
1L
1\
0y
1x
0z
0P
1R
0Q
1]
1l
0B
1@
0A
0+
0*
1)
#12000
0!
07
0[
0L
0\
#12500
1!
17
1[
1L
1\
1z
1P
0]
1^
0l
1B
1+
#13000
0!
07
0[
0L
0\
#13500
1!
17
1[
1L
1\
1y
0z
0P
1Q
1]
0B
1A
0+
1*
#14000
0!
07
0[
0L
0\
#14500
1!
17
1[
1L
1\
1z
1P
0]
0^
0_
0`
1a
1B
1b
1+
#15000
0!
07
0[
0L
0\
#15500
1!
17
1[
1L
1\
0y
0x
0w
1v
0z
0P
1T
0S
0R
0Q
1]
0b
1c
0a
1l
0B
1>
0?
0@
0A
1b
0c
0+
0*
0)
0(
1'
#16000
0!
07
0[
0L
0\
#16500
1!
17
1[
1L
1\
1z
1P
0]
1^
0l
1B
1+
#17000
0!
07
0[
0L
0\
#17500
1!
17
1[
1L
1\
1y
0z
0P
1Q
1]
0B
1A
0+
1*
#18000
0!
07
0[
0L
0\
#18500
1!
17
1[
1L
1\
1z
1P
0]
0^
1_
1B
1+
#19000
0!
07
0[
0L
0\
#19500
1!
17
1[
1L
1\
0y
1x
0z
0P
1R
0Q
1]
1l
0B
1@
0A
0+
0*
1)
#20000
0!
07
0[
0L
0\
#20500
1!
17
1[
1L
1\
1z
1P
0]
1^
0l
1B
1+
#21000
0!
07
0[
0L
0\
#21500
1!
17
1[
1L
1\
1y
0z
0P
1Q
1]
0B
1A
0+
1*
#22000
0!
07
0[
0L
0\
#22500
1!
17
1[
1L
1\
1z
1P
0]
0^
0_
1`
1B
1+
#23000
0!
07
0[
0L
0\
#23500
1!
17
1[
1L
1\
0y
0x
1w
0z
0P
1S
0R
0Q
1]
1l
0B
1?
0@
0A
0+
0*
0)
1(
#24000
0!
07
0[
0L
0\
#24500
1!
17
1[
1L
1\
1z
1P
0]
1^
0l
1B
1+
#25000
0!
07
0[
0L
0\
#25500
1!
17
1[
1L
1\
1y
0z
0P
1Q
1]
0B
1A
0+
1*
#26000
0!
07
0[
0L
0\
#26500
1!
17
1[
1L
1\
1z
1P
0]
0^
1_
1B
1+
#27000
0!
07
0[
0L
0\
#27500
1!
17
1[
1L
1\
0y
1x
0z
0P
1R
0Q
1]
1l
0B
1@
0A
0+
0*
1)
#28000
0!
07
0[
0L
0\
#28500
1!
17
1[
1L
1\
1z
1P
0]
1^
0l
1B
1+
#29000
0!
07
0[
0L
0\
#29500
1!
17
1[
1L
1\
1y
0z
0P
1Q
1]
0B
1A
0+
1*
#30000
0!
07
0[
0L
0\
#30500
1!
17
1[
1L
1\
1z
1P
0]
0^
0_
0`
1a
1B
0b
1c
1+
#31000
0!
07
0[
0L
0\
#31500
1!
17
1[
1L
1\
0y
0x
0w
0v
1u
0z
0P
1U
0T
0S
0R
0Q
1]
1b
1m
0a
1l
0B
1=
0>
0?
0@
0A
0b
0+
0*
0)
0(
0'
1&
#32000
0!
07
0[
0L
0\
#32500
1!
17
1[
1L
1\
1z
1P
0]
1^
0l
1B
1+
#33000
0!
07
0[
0L
0\
#33500
1!
17
1[
1L
1\
1y
0z
0P
1Q
1]
0B
1A
0+
1*
#34000
0!
07
0[
0L
0\
#34500
1!
17
1[
1L
1\
1z
1P
0]
0^
1_
1B
1+
#35000
0!
07
0[
0L
0\
#35500
1!
17
1[
1L
1\
0y
1x
0z
0P
1R
0Q
1]
0m
1l
0B
1@
0A
0+
0*
1)
#36000
0!
07
0[
0L
0\
#36500
1!
17
1[
1L
1\
1z
1P
0]
1^
0l
1B
1+
#37000
0!
07
0[
0L
0\
#37500
1!
17
1[
1L
1\
1y
0z
0P
1Q
1]
0B
1A
0+
1*
#38000
0!
07
0[
0L
0\
#38500
1!
17
1[
1L
1\
1z
1P
0]
0^
0_
1`
1B
1+
#39000
0!
07
0[
0L
0\
#39500
1!
17
1[
1L
1\
0y
0x
1w
0z
0P
1S
0R
0Q
1]
1l
0B
1?
0@
0A
0+
0*
0)
1(
#40000
0!
07
0[
0L
0\
#40500
1!
17
1[
1L
1\
1z
1P
0]
1^
0l
1B
1+
#41000
0!
07
0[
0L
0\
#41500
1!
17
1[
1L
1\
1y
0z
0P
1Q
1]
0B
1A
0+
1*
#42000
0!
07
0[
0L
0\
#42500
1!
17
1[
1L
1\
1z
1P
0]
0^
1_
1B
1+
#43000
0!
07
0[
0L
0\
#43500
1!
17
1[
1L
1\
0y
1x
0z
0P
1R
0Q
1]
1l
0B
1@
0A
0+
0*
1)
#44000
0!
07
0[
0L
0\
#44500
1!
17
1[
1L
1\
1z
1P
0]
1^
0l
1B
1+
#45000
0!
07
0[
0L
0\
#45500
1!
17
1[
1L
1\
1y
0z
0P
1Q
1]
0B
1A
0+
1*
#46000
0!
07
0[
0L
0\
#46500
1!
17
1[
1L
1\
1z
1P
0]
0^
0_
0`
1a
1B
1b
1+
#47000
0!
07
0[
0L
0\
#47500
1!
17
1[
1L
1\
0y
0x
0w
1v
0z
0P
1T
0S
0R
0Q
1]
0b
0c
1d
0a
1l
0B
1>
0?
0@
0A
1b
1c
0d
0+
0*
0)
0(
1'
#48000
0!
07
0[
0L
0\
#48500
1!
17
1[
1L
1\
1z
1P
0]
1^
0l
1B
1+
#49000
0!
07
0[
0L
0\
#49500
1!
17
1[
1L
1\
1y
0z
0P
1Q
1]
0B
1A
0+
1*
#50000
0!
07
0[
0L
0\
#50500
1!
17
1[
1L
1\
1z
1P
0]
0^
1_
1B
1+
#51000
0!
07
0[
0L
0\
#51500
1!
17
1[
1L
1\
0y
1x
0z
0P
1R
0Q
1]
1l
0B
1@
0A
0+
0*
1)
#52000
0!
07
0[
0L
0\
#52500
1!
17
1[
1L
1\
1z
1P
0]
1^
0l
1B
1+
#53000
0!
07
0[
0L
0\
#53500
1!
17
1[
1L
1\
1y
0z
0P
1Q
1]
0B
1A
0+
1*
#54000
0!
07
0[
0L
0\
#54500
1!
17
1[
1L
1\
1z
1P
0]
0^
0_
1`
1B
1+
#55000
0!
07
0[
0L
0\
#55500
1!
17
1[
1L
1\
0y
0x
1w
0z
0P
1S
0R
0Q
1]
1l
0B
1?
0@
0A
0+
0*
0)
1(
#56000
0!
07
0[
0L
0\
#56500
1!
17
1[
1L
1\
1z
1P
0]
1^
0l
1B
1+
#57000
0!
07
0[
0L
0\
#57500
1!
17
1[
1L
1\
1y
0z
0P
1Q
1]
0B
1A
0+
1*
#58000
0!
07
0[
0L
0\
#58500
1!
17
1[
1L
1\
1z
1P
0]
0^
1_
1B
1+
#59000
0!
07
0[
0L
0\
#59500
1!
17
1[
1L
1\
0y
1x
0z
0P
1R
0Q
1]
1l
0B
1@
0A
0+
0*
1)
#60000
0!
07
0[
0L
0\
#60500
1!
17
1[
1L
1\
1z
1P
0]
1^
0l
1B
1+
#61000
0!
07
0[
0L
0\
#61500
1!
17
1[
1L
1\
1y
0z
0P
1Q
1]
0B
1A
0+
1*
#62000
0!
07
0[
0L
0\
#62500
1!
17
1[
1L
1\
1z
1P
0]
0^
0_
0`
1a
1B
0b
0c
1d
1+
#63000
0!
07
0[
0L
0\
#63500
1!
17
1[
1L
1\
0y
0x
0w
0v
0u
1t
0z
0P
1V
0U
0T
0S
0R
0Q
1]
1b
0a
1l
0B
1<
0=
0>
0?
0@
0A
0b
0+
0*
0)
0(
0'
0&
1%
#64000
0!
07
0[
0L
0\
#64500
1!
17
1[
1L
1\
1z
1P
0]
1^
0l
1B
1+
#65000
0!
07
0[
0L
0\
#65500
1!
17
1[
1L
1\
1y
0z
0P
1Q
1]
0B
1A
0+
1*
#66000
0!
07
0[
0L
0\
#66500
1!
17
1[
1L
1\
1z
1P
0]
0^
1_
1B
1+
#67000
0!
07
0[
0L
0\
#67500
1!
17
1[
1L
1\
0y
1x
0z
0P
1R
0Q
1]
1l
0B
1@
0A
0+
0*
1)
#68000
0!
07
0[
0L
0\
#68500
1!
17
1[
1L
1\
1z
1P
0]
1^
0l
1B
1+
#69000
0!
07
0[
0L
0\
#69500
1!
17
1[
1L
1\
1y
0z
0P
1Q
1]
0B
1A
0+
1*
#70000
0!
07
0[
0L
0\
#70500
1!
17
1[
1L
1\
1z
1P
0]
0^
0_
1`
1B
1+
#71000
0!
07
0[
0L
0\
#71500
1!
17
1[
1L
1\
0y
0x
1w
0z
0P
1S
0R
0Q
1]
1l
0B
1?
0@
0A
0+
0*
0)
1(
#72000
0!
07
0[
0L
0\
#72500
1!
17
1[
1L
1\
1z
1P
0]
1^
0l
1B
1+
#73000
0!
07
0[
0L
0\
#73500
1!
17
1[
1L
1\
1y
0z
0P
1Q
1]
0B
1A
0+
1*
#74000
0!
07
0[
0L
0\
#74500
1!
17
1[
1L
1\
1z
1P
0]
0^
1_
1B
1+
#75000
0!
07
0[
0L
0\
#75500
1!
17
1[
1L
1\
0y
1x
0z
0P
1R
0Q
1]
1l
0B
1@
0A
0+
0*
1)
#76000
0!
07
0[
0L
0\
#76500
1!
17
1[
1L
1\
1z
1P
0]
1^
0l
1B
1+
#77000
0!
07
0[
0L
0\
#77500
1!
17
1[
1L
1\
1y
0z
0P
1Q
1]
0B
1A
0+
1*
#78000
0!
07
0[
0L
0\
#78500
1!
17
1[
1L
1\
1z
1P
0]
0^
0_
0`
1a
1B
1b
1+
#79000
0!
07
0[
0L
0\
#79500
1!
17
1[
1L
1\
0y
0x
0w
1v
0z
0P
1T
0S
0R
0Q
1]
0b
1c
0a
1l
0B
1>
0?
0@
0A
1b
0c
0+
0*
0)
0(
1'
#80000
0!
07
0[
0L
0\
#80500
1!
17
1[
1L
1\
1z
1P
0]
1^
0l
1B
1+
#81000
0!
07
0[
0L
0\
#81500
1!
17
1[
1L
1\
1y
0z
0P
1Q
1]
0B
1A
0+
1*
#82000
0!
07
0[
0L
0\
#82500
1!
17
1[
1L
1\
1z
1P
0]
0^
1_
1B
1+
#83000
0!
07
0[
0L
0\
#83500
1!
17
1[
1L
1\
0y
1x
0z
0P
1R
0Q
1]
1l
0B
1@
0A
0+
0*
1)
#84000
0!
07
0[
0L
0\
#84500
1!
17
1[
1L
1\
1z
1P
0]
1^
0l
1B
1+
#85000
0!
07
0[
0L
0\
#85500
1!
17
1[
1L
1\
1y
0z
0P
1Q
1]
0B
1A
0+
1*
#86000
0!
07
0[
0L
0\
#86500
1!
17
1[
1L
1\
1z
1P
0]
0^
0_
1`
1B
1+
#87000
0!
07
0[
0L
0\
#87500
1!
17
1[
1L
1\
0y
0x
1w
0z
0P
1S
0R
0Q
1]
1l
0B
1?
0@
0A
0+
0*
0)
1(
#88000
0!
07
0[
0L
0\
#88500
1!
17
1[
1L
1\
1z
1P
0]
1^
0l
1B
1+
#89000
0!
07
0[
0L
0\
#89500
1!
17
1[
1L
1\
1y
0z
0P
1Q
1]
0B
1A
0+
1*
#90000
0!
07
0[
0L
0\
#90500
1!
17
1[
1L
1\
1z
1P
0]
0^
1_
1B
1+
#91000
0!
07
0[
0L
0\
#91500
1!
17
1[
1L
1\
0y
1x
0z
0P
1R
0Q
1]
1l
0B
1@
0A
0+
0*
1)
#92000
0!
07
0[
0L
0\
#92500
1!
17
1[
1L
1\
1z
1P
0]
1^
0l
1B
1+
#93000
0!
07
0[
0L
0\
#93500
1!
17
1[
1L
1\
1y
0z
0P
1Q
1]
0B
1A
0+
1*
#94000
0!
07
0[
0L
0\
#94500
1!
17
1[
1L
1\
1z
1P
0]
0^
0_
0`
1a
1B
0b
1c
1+
#95000
0!
07
0[
0L
0\
#95500
1!
17
1[
1L
1\
0y
0x
0w
0v
1u
0z
0P
1U
0T
0S
0R
0Q
1]
1b
1m
0a
1l
0B
1=
0>
0?
0@
0A
0b
0+
0*
0)
0(
0'
1&
#96000
0!
07
0[
0L
0\
#96500
1!
17
1[
1L
1\
1z
1P
0]
1^
0l
1B
1+
#97000
0!
07
0[
0L
0\
#97500
1!
17
1[
1L
1\
1y
0z
0P
1Q
1]
0B
1A
0+
1*
#98000
0!
07
0[
0L
0\
#98500
1!
17
1[
1L
1\
1z
1P
0]
0^
1_
1B
1+
#99000
0!
07
0[
0L
0\
#99500
1!
17
1[
1L
1\
0y
1x
0z
0P
1R
0Q
1]
0m
1l
0B
1@
0A
0+
0*
1)
#100000
0!
07
0[
0L
0\
#100500
1!
17
1[
1L
1\
1z
1P
0]
1^
0l
1B
1+
#101000
0!
07
0[
0L
0\
#101500
1!
17
1[
1L
1\
1y
0z
0P
1Q
1]
0B
1A
0+
1*
#102000
0!
07
0[
0L
0\
#102500
1!
17
1[
1L
1\
1z
1P
0]
0^
0_
1`
1B
1+
#103000
0!
07
0[
0L
0\
#103500
1!
17
1[
1L
1\
0y
0x
1w
0z
0P
1S
0R
0Q
1]
1l
0B
1?
0@
0A
0+
0*
0)
1(
#104000
0!
07
0[
0L
0\
#104500
1!
17
1[
1L
1\
1z
1P
0]
1^
0l
1B
1+
#105000
0!
07
0[
0L
0\
#105500
1!
17
1[
1L
1\
1y
0z
0P
1Q
1]
0B
1A
0+
1*
#106000
0!
07
0[
0L
0\
#106500
1!
17
1[
1L
1\
1z
1P
0]
0^
1_
1B
1+
#107000
0!
07
0[
0L
0\
#107500
1!
17
1[
1L
1\
0y
1x
0z
0P
1R
0Q
1]
1l
0B
1@
0A
0+
0*
1)
#108000
0!
07
0[
0L
0\
#108500
1!
17
1[
1L
1\
1z
1P
0]
1^
0l
1B
1+
#109000
0!
07
0[
0L
0\
#109500
1!
17
1[
1L
1\
1y
0z
0P
1Q
1]
0B
1A
0+
1*
#110000
0!
07
0[
0L
0\
#110500
1!
17
1[
1L
1\
1z
1P
0]
0^
0_
0`
1a
1B
1b
1+
#111000
0!
07
0[
0L
0\
#111500
1!
17
1[
1L
1\
0y
0x
0w
1v
0z
0P
1T
0S
0R
0Q
1]
0b
0c
0d
1e
0a
1l
0B
1>
0?
0@
0A
1b
1c
1d
0e
1f
0+
0*
0)
0(
1'
0f
#112000
0!
07
0[
0L
0\
#112500
1!
17
1[
1L
1\
1z
1P
0]
1^
0l
1B
1+
#113000
0!
07
0[
0L
0\
#113500
1!
17
1[
1L
1\
1y
0z
0P
1Q
1]
0B
1A
0+
1*
#114000
0!
07
0[
0L
0\
#114500
1!
17
1[
1L
1\
1z
1P
0]
0^
1_
1B
1+
#115000
0!
07
0[
0L
0\
#115500
1!
17
1[
1L
1\
0y
1x
0z
0P
1R
0Q
1]
1l
0B
1@
0A
0+
0*
1)
#116000
0!
07
0[
0L
0\
#116500
1!
17
1[
1L
1\
1z
1P
0]
1^
0l
1B
1+
#117000
0!
07
0[
0L
0\
#117500
1!
17
1[
1L
1\
1y
0z
0P
1Q
1]
0B
1A
0+
1*
#118000
0!
07
0[
0L
0\
#118500
1!
17
1[
1L
1\
1z
1P
0]
0^
0_
1`
1B
1+
#119000
0!
07
0[
0L
0\
#119500
1!
17
1[
1L
1\
0y
0x
1w
0z
0P
1S
0R
0Q
1]
1l
0B
1?
0@
0A
0+
0*
0)
1(
#120000
0!
07
0[
0L
0\
#120500
1!
17
1[
1L
1\
1z
1P
0]
1^
0l
1B
1+
#121000
0!
07
0[
0L
0\
#121500
1!
17
1[
1L
1\
1y
0z
0P
1Q
1]
0B
1A
0+
1*
#122000
0!
07
0[
0L
0\
#122500
1!
17
1[
1L
1\
1z
1P
0]
0^
1_
1B
1+
#123000
0!
07
0[
0L
0\
#123500
1!
17
1[
1L
1\
0y
1x
0z
0P
1R
0Q
1]
1l
0B
1@
0A
0+
0*
1)
#124000
0!
07
0[
0L
0\
#124500
1!
17
1[
1L
1\
1z
1P
0]
1^
0l
1B
1+
#125000
0!
07
0[
0L
0\
#125500
1!
17
1[
1L
1\
1y
0z
0P
1Q
1]
0B
1A
0+
1*
#126000
0!
07
0[
0L
0\
#126500
1!
17
1[
1L
1\
1z
1P
0]
0^
0_
0`
1a
1B
0b
0c
0d
1e
1+
1f
#127000
0!
07
0[
0L
0\
#127500
1!
17
1[
1L
1\
0y
0x
0w
0v
0u
0t
1s
0z
0P
1W
0V
0U
0T
0S
0R
0Q
1]
0f
1g
1b
0e
0a
1l
0B
1;
0<
0=
0>
0?
0@
0A
0b
1f
0g
0+
0*
0)
0(
0'
0&
0%
1$
#128000
0!
07
0[
0L
0\
#128500
1!
17
1[
1L
1\
1z
1P
0]
1^
0l
1B
1+
#129000
0!
07
0[
0L
0\
#129500
1!
17
1[
1L
1\
1y
0z
0P
1Q
1]
0B
1A
0+
1*
#130000
0!
07
0[
0L
0\
#130500
1!
17
1[
1L
1\
1z
1P
0]
0^
1_
1B
1+
#131000
0!
07
0[
0L
0\
#131500
1!
17
1[
1L
1\
0y
1x
0z
0P
1R
0Q
1]
1l
0B
1@
0A
0+
0*
1)
#132000
0!
07
0[
0L
0\
#132500
1!
17
1[
1L
1\
1z
1P
0]
1^
0l
1B
1+
#133000
0!
07
0[
0L
0\
#133500
1!
17
1[
1L
1\
1y
0z
0P
1Q
1]
0B
1A
0+
1*
#134000
0!
07
0[
0L
0\
#134500
1!
17
1[
1L
1\
1z
1P
0]
0^
0_
1`
1B
1+
#135000
0!
07
0[
0L
0\
#135500
1!
17
1[
1L
1\
0y
0x
1w
0z
0P
1S
0R
0Q
1]
1l
0B
1?
0@
0A
0+
0*
0)
1(
#136000
0!
07
0[
0L
0\
#136500
1!
17
1[
1L
1\
1z
1P
0]
1^
0l
1B
1+
#137000
0!
07
0[
0L
0\
#137500
1!
17
1[
1L
1\
1y
0z
0P
1Q
1]
0B
1A
0+
1*
#138000
0!
07
0[
0L
0\
#138500
1!
17
1[
1L
1\
1z
1P
0]
0^
1_
1B
1+
#139000
0!
07
0[
0L
0\
#139500
1!
17
1[
1L
1\
0y
1x
0z
0P
1R
0Q
1]
1l
0B
1@
0A
0+
0*
1)
#140000
0!
07
0[
0L
0\
#140500
1!
17
1[
1L
1\
1z
1P
0]
1^
0l
1B
1+
#141000
0!
07
0[
0L
0\
#141500
1!
17
1[
1L
1\
1y
0z
0P
1Q
1]
0B
1A
0+
1*
#142000
0!
07
0[
0L
0\
#142500
1!
17
1[
1L
1\
1z
1P
0]
0^
0_
0`
1a
1B
1b
1+
#143000
0!
07
0[
0L
0\
#143500
1!
17
1[
1L
1\
0y
0x
0w
1v
0z
0P
1T
0S
0R
0Q
1]
0b
1c
0a
1l
0B
1>
0?
0@
0A
1b
0c
0+
0*
0)
0(
1'
#144000
0!
07
0[
0L
0\
#144500
1!
17
1[
1L
1\
1z
1P
0]
1^
0l
1B
1+
#145000
0!
07
0[
0L
0\
#145500
1!
17
1[
1L
1\
1y
0z
0P
1Q
1]
0B
1A
0+
1*
#146000
0!
07
0[
0L
0\
#146500
1!
17
1[
1L
1\
1z
1P
0]
0^
1_
1B
1+
#147000
0!
07
0[
0L
0\
#147500
1!
17
1[
1L
1\
0y
1x
0z
0P
1R
0Q
1]
1l
0B
1@
0A
0+
0*
1)
#148000
0!
07
0[
0L
0\
#148500
1!
17
1[
1L
1\
1z
1P
0]
1^
0l
1B
1+
#149000
0!
07
0[
0L
0\
#149500
1!
17
1[
1L
1\
1y
0z
0P
1Q
1]
0B
1A
0+
1*
#150000
0!
07
0[
0L
0\
#150500
1!
17
1[
1L
1\
1z
1P
0]
0^
0_
1`
1B
1+
#151000
0!
07
0[
0L
0\
#151500
1!
17
1[
1L
1\
0y
0x
1w
0z
0P
1S
0R
0Q
1]
1l
0B
1?
0@
0A
0+
0*
0)
1(
#152000
0!
07
0[
0L
0\
#152500
1!
17
1[
1L
1\
1z
1P
0]
1^
0l
1B
1+
#153000
0!
07
0[
0L
0\
#153500
1!
17
1[
1L
1\
1y
0z
0P
1Q
1]
0B
1A
0+
1*
#154000
0!
07
0[
0L
0\
#154500
1!
17
1[
1L
1\
1z
1P
0]
0^
1_
1B
1+
#155000
0!
07
0[
0L
0\
#155500
1!
17
1[
1L
1\
0y
1x
0z
0P
1R
0Q
1]
1l
0B
1@
0A
0+
0*
1)
#156000
0!
07
0[
0L
0\
#156500
1!
17
1[
1L
1\
1z
1P
0]
1^
0l
1B
1+
#157000
0!
07
0[
0L
0\
#157500
1!
17
1[
1L
1\
1y
0z
0P
1Q
1]
0B
1A
0+
1*
#158000
0!
07
0[
0L
0\
#158500
1!
17
1[
1L
1\
1z
1P
0]
0^
0_
0`
1a
1B
0b
1c
1+
#159000
0!
07
0[
0L
0\
#159500
1!
17
1[
1L
1\
0y
0x
0w
0v
1u
0z
0P
1U
0T
0S
0R
0Q
1]
1b
1m
0a
1l
0B
1=
0>
0?
0@
0A
0b
0+
0*
0)
0(
0'
1&
#160000
0!
07
0[
0L
0\
#160500
1!
17
1[
1L
1\
1z
1P
0]
1^
0l
1B
1+
#161000
0!
07
0[
0L
0\
#161500
1!
17
1[
1L
1\
1y
0z
0P
1Q
1]
0B
1A
0+
1*
#162000
0!
07
0[
0L
0\
#162500
1!
17
1[
1L
1\
1z
1P
0]
0^
1_
1B
1+
#163000
0!
07
0[
0L
0\
#163500
1!
17
1[
1L
1\
0y
1x
0z
0P
1R
0Q
1]
0m
1l
0B
1@
0A
0+
0*
1)
#164000
0!
07
0[
0L
0\
#164500
1!
17
1[
1L
1\
1z
1P
0]
1^
0l
1B
1+
#165000
0!
07
0[
0L
0\
#165500
1!
17
1[
1L
1\
1y
0z
0P
1Q
1]
0B
1A
0+
1*
#166000
0!
07
0[
0L
0\
#166500
1!
17
1[
1L
1\
1z
1P
0]
0^
0_
1`
1B
1+
#167000
0!
07
0[
0L
0\
#167500
1!
17
1[
1L
1\
0y
0x
1w
0z
0P
1S
0R
0Q
1]
1l
0B
1?
0@
0A
0+
0*
0)
1(
#168000
0!
07
0[
0L
0\
#168500
1!
17
1[
1L
1\
1z
1P
0]
1^
0l
1B
1+
#169000
0!
07
0[
0L
0\
#169500
1!
17
1[
1L
1\
1y
0z
0P
1Q
1]
0B
1A
0+
1*
#170000
0!
07
0[
0L
0\
#170500
1!
17
1[
1L
1\
1z
1P
0]
0^
1_
1B
1+
#171000
0!
07
0[
0L
0\
#171500
1!
17
1[
1L
1\
0y
1x
0z
0P
1R
0Q
1]
1l
0B
1@
0A
0+
0*
1)
#172000
0!
07
0[
0L
0\
#172500
1!
17
1[
1L
1\
1z
1P
0]
1^
0l
1B
1+
#173000
0!
07
0[
0L
0\
#173500
1!
17
1[
1L
1\
1y
0z
0P
1Q
1]
0B
1A
0+
1*
#174000
0!
07
0[
0L
0\
#174500
1!
17
1[
1L
1\
1z
1P
0]
0^
0_
0`
1a
1B
1b
1+
#175000
0!
07
0[
0L
0\
#175500
1!
17
1[
1L
1\
0y
0x
0w
1v
0z
0P
1T
0S
0R
0Q
1]
0b
0c
1d
0a
1l
0B
1>
0?
0@
0A
1b
1c
0d
0+
0*
0)
0(
1'
#176000
0!
07
0[
0L
0\
#176500
1!
17
1[
1L
1\
1z
1P
0]
1^
0l
1B
1+
#177000
0!
07
0[
0L
0\
#177500
1!
17
1[
1L
1\
1y
0z
0P
1Q
1]
0B
1A
0+
1*
#178000
0!
07
0[
0L
0\
#178500
1!
17
1[
1L
1\
1z
1P
0]
0^
1_
1B
1+
#179000
0!
07
0[
0L
0\
#179500
1!
17
1[
1L
1\
0y
1x
0z
0P
1R
0Q
1]
1l
0B
1@
0A
0+
0*
1)
#180000
0!
07
0[
0L
0\
