MULT_4_2C/simulation/qsim/MULT_4_2C.msim.vcd
$comment
	File created using the following command:
		vcd file MULT_4_2C.msim.vcd -direction
$end
$date
	Wed Feb 21 11:45:49 2024
$end
$version
	ModelSim Version 10.5b
$end
$timescale
	1ps
$end

$scope module mult_4_2c_vhd_vec_tst $end
$var wire 1 ! A [3] $end
$var wire 1 " A [2] $end
$var wire 1 # A [1] $end
$var wire 1 $ A [0] $end
$var wire 1 % B [3] $end
$var wire 1 & B [2] $end
$var wire 1 ' B [1] $end
$var wire 1 ( B [0] $end
$var wire 1 ) M [8] $end
$var wire 1 * M [7] $end
$var wire 1 + M [6] $end
$var wire 1 , M [5] $end
$var wire 1 - M [4] $end
$var wire 1 . M [3] $end
$var wire 1 / M [2] $end
$var wire 1 0 M [1] $end
$var wire 1 1 M [0] $end

$scope module i1 $end
$var wire 1 2 gnd $end
$var wire 1 3 vcc $end
$var wire 1 4 unknown $end
$var wire 1 5 devoe $end
$var wire 1 6 devclrn $end
$var wire 1 7 devpor $end
$var wire 1 8 ww_devoe $end
$var wire 1 9 ww_devclrn $end
$var wire 1 : ww_devpor $end
$var wire 1 ; ww_A [3] $end
$var wire 1 < ww_A [2] $end
$var wire 1 = ww_A [1] $end
$var wire 1 > ww_A [0] $end
$var wire 1 ? ww_B [3] $end
$var wire 1 @ ww_B [2] $end
$var wire 1 A ww_B [1] $end
$var wire 1 B ww_B [0] $end
$var wire 1 C ww_M [8] $end
$var wire 1 D ww_M [7] $end
$var wire 1 E ww_M [6] $end
$var wire 1 F ww_M [5] $end
$var wire 1 G ww_M [4] $end
$var wire 1 H ww_M [3] $end
$var wire 1 I ww_M [2] $end
$var wire 1 J ww_M [1] $end
$var wire 1 K ww_M [0] $end
$var wire 1 L \~QUARTUS_CREATED_ADC1~_CHSEL_bus\ [4] $end
$var wire 1 M \~QUARTUS_CREATED_ADC1~_CHSEL_bus\ [3] $end
$var wire 1 N \~QUARTUS_CREATED_ADC1~_CHSEL_bus\ [2] $end
$var wire 1 O \~QUARTUS_CREATED_ADC1~_CHSEL_bus\ [1] $end
$var wire 1 P \~QUARTUS_CREATED_ADC1~_CHSEL_bus\ [0] $end
$var wire 1 Q \~QUARTUS_CREATED_GND~I_combout\ $end
$var wire 1 R \~QUARTUS_CREATED_UNVM~~busy\ $end
$var wire 1 S \~QUARTUS_CREATED_ADC1~~eoc\ $end
$var wire 1 T \M[0]~output_o\ $end
$var wire 1 U \M[1]~output_o\ $end
$var wire 1 V \M[2]~output_o\ $end
$var wire 1 W \M[3]~output_o\ $end
$var wire 1 X \M[4]~output_o\ $end
$var wire 1 Y \M[5]~output_o\ $end
$var wire 1 Z \M[6]~output_o\ $end
$var wire 1 [ \M[7]~output_o\ $end
$var wire 1 \ \M[8]~output_o\ $end
$var wire 1 ] \B[0]~input_o\ $end
$var wire 1 ^ \A[0]~input_o\ $end
$var wire 1 _ \I0|Coef[0]~0_combout\ $end
$var wire 1 ` \A[1]~input_o\ $end
$var wire 1 a \B[1]~input_o\ $end
$var wire 1 b \I1|I0|s~combout\ $end
$var wire 1 c \A[2]~input_o\ $end
$var wire 1 d \I1|I1|HA1|s~4_combout\ $end
$var wire 1 e \I1|I1|HA1|s~5_combout\ $end
$var wire 1 f \B[2]~input_o\ $end
$var wire 1 g \I1|I6|s~combout\ $end
$var wire 1 h \B[3]~input_o\ $end
$var wire 1 i \I0|Coef[9]~3_combout\ $end
$var wire 1 j \A[3]~input_o\ $end
$var wire 1 k \I0|Coef[3]~2_combout\ $end
$var wire 1 l \I1|I1|Cout~3_combout\ $end
$var wire 1 m \I1|I1|Cout~9_combout\ $end
$var wire 1 n \I1|I2|HA1|s~combout\ $end
$var wire 1 o \I0|Coef[8]~1_combout\ $end
$var wire 1 p \I1|I7|HA1|s~combout\ $end
$var wire 1 q \I1|I11|HA1|s~combout\ $end
$var wire 1 r \I1|I11|HA0|Cout~combout\ $end
$var wire 1 s \I1|I2|Cout~0_combout\ $end
$var wire 1 t \I0|Coef[10]~5_combout\ $end
$var wire 1 u \I1|I5|HA1|s~0_combout\ $end
$var wire 1 v \I1|I7|Cout~0_combout\ $end
$var wire 1 w \I1|I8|HA1|s~combout\ $end
$var wire 1 x \I1|I11|HA1|Cout~combout\ $end
$var wire 1 y \I0|Coef[13]~4_combout\ $end
$var wire 1 z \I1|I12|HA1|s~combout\ $end
$var wire 1 { \I0|Coef[14]~6_combout\ $end
$var wire 1 | \I1|I9|HA0|s~combout\ $end
$var wire 1 } \I1|I8|Cout~0_combout\ $end
$var wire 1 ~ \I1|I12|Cout~0_combout\ $end
$var wire 1 !! \I1|I13|HA1|s~combout\ $end
$var wire 1 "! \I1|I13|Cout~0_combout\ $end
$var wire 1 #! \I0|Coef[15]~7_combout\ $end
$var wire 1 $! \I1|I9|Cout~8_combout\ $end
$var wire 1 %! \I1|I14|HA1|s~combout\ $end
$var wire 1 &! \I1|I14|Cout~0_combout\ $end
$var wire 1 '! \I1|I3|Cout~0_combout\ $end
$var wire 1 (! \I0|Coef[11]~8_combout\ $end
$var wire 1 )! \I1|I10|Cout~0_combout\ $end
$var wire 1 *! \I1|I15|HA1|s~combout\ $end
$var wire 1 +! \I1|I15|Cout~0_combout\ $end
$var wire 1 ,! \I1|I14|HA1|ALT_INV_s~combout\ $end
$var wire 1 -! \I1|I13|HA1|ALT_INV_s~combout\ $end
$var wire 1 .! \I1|I12|HA1|ALT_INV_s~combout\ $end
$var wire 1 /! \I1|I11|HA1|ALT_INV_s~combout\ $end
$upscope $end
$upscope $end
$enddefinitions $end
#0
$dumpvars
02
13
x4
15
16
17
18
19
1:
0Q
zR
zS
0T
0U
0V
0W
0X
0Y
0Z
0[
0\
0]
0^
0_
0`
0a
0b
0c
0d
0e
0f
0g
0h
0i
0j
0k
0l
0m
0n
0o
0p
1q
0r
0s
0t
0u
0v
0w
0x
1y
1z
1{
0|
0}
0~
1!!
0"!
1#!
0$!
1%!
0&!
0'!
0(!
0)!
0*!
0+!
0,!
0-!
0.!
0/!
0!
0"
0#
0$
0%
0&
0'
0(
0)
0*
0+
0,
0-
0.
0/
00
01
0;
0<
0=
0>
0?
0@
0A
0B
0C
0D
0E
0F
0G
0H
0I
0J
0K
0L
0M
0N
0O
0P
$end
#50000
1$
1(
1>
1B
1]
1^
1l
1_
1T
1K
11
#100000
0$
0(
1#
1'
0>
1=
0B
1A
1a
0]
1`
0^
0l
0_
1d
1e
0T
1g
0K
1V
01
1I
1/
#150000
1$
1(
1>
1B
1]
1^
0d
1l
1_
1T
1m
0e
1K
0g
1n
11
0V
1p
0I
0q
0/
1/!
1W
1H
1.
#200000
0$
0(
0#
0'
1"
1&
0>
0=
1<
0B
0A
1@
1f
0a
0]
1c
0`
0^
0_
1d
0m
1t
0T
1w
0n
0K
0p
0z
01
1.!
1q
1X
0/!
1G
0W
1-
0H
0.
#250000
1$
1(
1>
1B
1]
1^
1g
1o
1_
1e
1T
1V
0g
1p
1K
1I
0V
0q
11
1/
1/!
0I
0/
1W
1H
1.
#300000
0$
0(
1#
1'
0>
1=
0B
1A
1a
0]
1`
0^
1g
0o
1i
0_
0d
1n
0T
1V
0p
1v
0K
1I
0w
1}
1q
01
1/
0/!
0!!
1z
0W
0.!
1-!
0H
1Y
0X
0.
1F
0G
0-
1,
#350000
1$
1(
1>
1B
1]
1^
1d
0g
1o
1_
0e
1m
1T
0V
0n
1s
1g
1e
1K
0I
1V
0g
1w
11
0/
1I
0V
0z
1/
1.!
0I
0/
1X
1G
1-
#400000
0$
0(
0#
0'
0"
0&
1!
1%
0>
0=
0<
1;
0B
0A
0@
1?
1h
0f
0a
0]
1j
0c
0`
0^
0l
0_
0d
0e
0m
1n
0s
1g
0i
0o
0t
1x
0y
0{
1V
0T
1!!
1"!
1~
0}
0n
0g
1p
0v
0-!
1I
0K
0V
0w
0q
1r
0x
0p
0%!
01
1/
0Y
1,!
1/!
0I
1q
0r
1x
1z
0F
0/
1W
1Z
0.!
0/!
0,
1H
1E
0W
0X
1.
1+
0H
0G
0.
0-
#450000
1$
1(
1>
1B
1]
1^
1l
0q
0x
1_
1k
1u
1|
1/!
1T
0!!
1%!
1&!
1w
1n
0z
0~
1W
1.!
0,!
1-!
1K
1!!
1p
1z
1~
1*!
1H
11
1Y
0Z
1X
0.!
0-!
1.
1[
0!!
1q
1x
1F
0E
1G
0Y
0X
0/!
1-!
1D
1-
1,
0+
0z
0F
0G
1*
1Y
0W
1.!
0-
0,
1F
0H
1X
0.
1,
1G
1-
#500000
0$
0(
1#
1'
0>
1=
0B
1A
1a
0]
1`
0^
0l
0q
1r
0x
1y
0_
0k
1d
1e
1/!
0T
1g
0n
1z
1W
0.!
0K
1V
0p
1H
01
0X
1I
1.
1q
0r
1x
0G
1/
0/!
0-
0W
0H
0.
#550000
1$
1(
1>
1B
1]
1^
0d
1l
0q
0x
1_
1k
0u
1'!
1/!
1T
0*!
1+!
0w
1n
0z
0~
1m
0e
1W
1.!
1K
1\
0[
0g
0n
1s
1!!
1p
1z
1H
11
1X
0.!
0-!
1C
0D
1.
0V
1q
1x
1w
0p
1G
0*
1)
0Y
0X
0/!
0I
1-
0q
0x
1~
0F
0G
0/
0W
1/!
0-
0,
0!!
0z
0~
0H
1W
1.!
1-!
0.
1!!
1H
1Y
1X
0-!
1.
1F
1G
0Y
1-
1,
0F
0,
#600000
0$
0(
0#
0'
1"
1&
0>
0=
1<
0B
0A
1@
1f
0a
0]
1c
0`
0^
1q
1x
0y
1{
0_
0k
1d
0m
0'!
1t
1(!
0/!
0T
0w
1}
1*!
0+!
0s
0!!
0"!
1~
0W
1-!
0K
0\
1[
0%!
0&!
1w
0}
1)!
1z
0H
01
1Y
0.!
1,!
0C
1D
0.
1!!
1"!
0)!
0z
1F
1*
0)
1Z
0X
1.!
0-!
1,
0*!
1%!
1&!
1E
0G
0Y
1X
0,!
0-
1+
0[
1*!
0F
1G
0Z
0D
1-
0,
1[
0E
0*
1D
0+
1*
#650000
1$
1(
1>
1B
1]
1^
1g
1o
0q
0x
1_
1e
1k
1u
0|
1$!
1/!
1T
1V
0!!
0"!
0w
1}
1)!
1n
0g
1z
1p
1W
0.!
1-!
1K
1I
0V
1q
1x
0p
1v
0*!
1+!
1!!
1"!
0z
0~
0%!
0&!
1H
11
1/
1Y
0X
1,!
1.!
0-!
0/!
0I
1.
1\
0[
1*!
0+!
0!!
0"!
1%!
1&!
1w
0q
0x
1z
1~
1F
0G
0/
0W
0Y
1X
1Z
0.!
1/!
0,!
1-!
1C
0D
0-
1,
0\
1[
1!!
1"!
0*!
1+!
0%!
0&!
0H
0F
1G
1E
0*
1)
1Y
0Z
1W
0X
1,!
0-!
0C
1D
0.
1-
0,
1+
1\
0[
1*!
0+!
1%!
1&!
1F
0E
1H
0G
1*
0)
0Y
1Z
0,!
1C
0D
1.
0-
1,
0+
0\
1[
0*!
1+!
0F
1E
0*
1)
0Z
0C
1D
0,
1+
1\
0[
0E
1*
0)
1C
0D
0+
0*
1)
#700000
0$
0(
1#
1'
0>
1=
0B
1A
1a
0]
1`
0^
1g
0o
1q
1x
1i
1y
0_
0k
0d
0n
1s
0/!
0T
1V
0w
1n
0s
1p
0v
0W
0K
1I
0q
1r
0x
0p
1v
0z
0~
0H
01
1/
1.!
1/!
0.
0!!
0"!
1w
1q
0r
1x
1W
1X
0/!
1-!
1z
1~
0%!
0&!
1H
1G
1Y
0W
1,!
0.!
1.
1-
1*!
0+!
1!!
1"!
1F
0H
0X
1Z
0-!
0.
1,
0\
1[
1%!
1&!
0G
1E
0Y
0,!
0C
1D
0-
1+
0*!
1+!
0F
1*
0)
0Z
0,
1\
0[
0E
1C
0D
0+
0*
1)
#750000
1$
1(
1>
1B
1]
1^
1d
0g
1o
0q
0x
1_
0e
1k
1m
0u
1'!
1/!
1T
0V
1*!
0w
1s
1g
0z
0~
1e
1W
1.!
1K
0I
1V
1[
0g
1p
0!!
0"!
1w
1z
1H
11
0/
1X
0.!
1-!
1I
1D
1.
0V
0z
0%!
0&!
1q
1x
1G
1/
1*
1Y
0X
0/!
1,!
1.!
0I
1-
1z
1~
0*!
1F
0G
0/
1X
1Z
0W
0.!
0-
1,
0[
1!!
1"!
1G
1E
0H
0X
0-!
0D
0.
1-
1+
1%!
1&!
0G
0*
0Y
0,!
0-
1*!
0F
0Z
0,
1[
0E
1D
0+
1*
#800000
0$
0(
0#
0'
0"
0&
0!
0%
0>
0=
0<
0;
0B
0A
0@
0?
0h
0f
0a
0]
0j
0c
0`
0^
0l
0_
0k
0d
0e
0m
0n
0'!
1g
0i
0o
0t
0$!
0(!
0q
0x
1/!
1V
0T
0z
0~
0%!
0&!
0w
0)!
0*!
0g
0p
0v
0s
1W
1,!
1.!
1I
0K
0V
0[
0}
1q
1z
0+!
0!!
0"!
1H
01
1/
1X
1Z
1-!
0.!
0/!
0I
0D
1.
0\
1%!
1!!
1G
1E
0/
0*
0W
0X
1Y
0-!
0,!
0C
1-
1+
0H
0G
1F
0)
0Z
0Y
0.
0-
1,
0E
0F
0,
0+
#850000
1$
1(
1>
1B
1]
1^
1l
1_
1T
1K
11
#900000
0$
0(
1#
1'
0>
1=
0B
1A
1a
0]
1`
0^
0l
0_
1d
1e
0T
1g
0K
1V
01
1I
1/
#950000
1$
1(
1>
1B
1]
1^
0d
1l
1_
1T
1m
0e
1K
0g
1n
11
0V
1p
0I
0q
0/
1/!
1W
1H
1.
