DETECTORDESECUENCIASIMPLE1/simulation/qsim/DETECTORDESECUENCIASIMPLE1.msim.vcd
$comment
	File created using the following command:
		vcd file DETECTORDESECUENCIASIMPLE1.msim.vcd -direction
$end
$date
	Tue Nov 21 00:34:40 2023
$end
$version
	ModelSim Version 10.5b
$end
$timescale
	1ps
$end

$scope module DETECTORDESECUENCIASIMPLE1_vlg_vec_tst $end
$var reg 1 ! CLK $end
$var reg 1 " I $end
$var wire 1 # O $end

$scope module i1 $end
$var wire 1 $ gnd $end
$var wire 1 % vcc $end
$var wire 1 & unknown $end
$var tri1 1 ' devclrn $end
$var tri1 1 ( devpor $end
$var tri1 1 ) devoe $end
$var wire 1 * ~QUARTUS_CREATED_GND~I_combout $end
$var wire 1 + ~QUARTUS_CREATED_UNVM~~busy $end
$var wire 1 , ~QUARTUS_CREATED_ADC1~~eoc $end
$var wire 1 - O~output_o $end
$var wire 1 . CLK~input_o $end
$var wire 1 / CLK~inputclkctrl_outclk $end
$var wire 1 0 I~input_o $end
$var wire 1 1 inst8~0_combout $end
$var wire 1 2 inst2~q $end
$var wire 1 3 inst12~0_combout $end
$var wire 1 4 inst3~q $end
$var wire 1 5 inst13~0_combout $end
$upscope $end
$upscope $end
$enddefinitions $end
#0
$dumpvars
0!
0"
0#
0$
1%
x&
1'
1(
1)
0*
z+
z,
0-
0.
0/
00
01
02
13
04
05
$end
#10000
1"
10
03
#35000
1!
1.
1/
#40000
0"
00
13
#50000
1"
10
03
#70000
0!
0.
0/
#90000
0"
00
13
#105000
1!
1.
1/
14
#140000
1"
0!
0.
10
0/
03
11
#150000
0"
00
13
01
#160000
1"
10
03
11
#175000
1!
1.
1/
04
12
13
#180000
0"
00
01
#200000
1"
10
11
#210000
0!
0.
0/
#220000
0"
00
01
#230000
1"
10
11
#245000
1!
1.
1/
14
15
01
1-
1#
#270000
0"
00
05
03
0-
0#
#280000
0!
1"
10
0.
0/
15
13
1-
1#
#290000
0"
00
05
03
0-
0#
#300000
1"
10
15
13
1-
1#
#315000
1!
1.
1/
02
05
03
11
0-
0#
#320000
0"
00
13
01
#330000
1"
10
03
11
#350000
0!
0.
0/
#360000
0"
00
13
01
#380000
1"
10
03
11
#385000
1!
1.
1/
04
12
13
#400000
0"
00
01
#410000
1"
10
11
#420000
0!
0.
0/
#440000
0"
00
01
#450000
1"
10
11
#455000
1!
1.
1/
14
15
01
1-
1#
#460000
0"
00
05
03
0-
0#
#480000
1"
10
15
13
1-
1#
#490000
0!
0"
00
0.
0/
05
03
0-
0#
#520000
1"
10
15
13
1-
1#
#525000
1!
1.
1/
02
05
03
11
0-
0#
#560000
0!
0.
0/
#570000
0"
00
13
01
#580000
1"
10
03
11
#595000
1!
1.
1/
04
12
13
#600000
0"
00
01
#610000
1"
10
11
#630000
0!
0.
0/
#640000
0"
00
01
#650000
1"
10
11
#660000
0"
00
01
#665000
1!
1.
1/
14
02
#680000
1"
10
03
11
#700000
0!
0"
00
0.
0/
13
01
#710000
1"
10
03
11
#720000
0"
00
13
01
#730000
1"
10
03
11
#735000
1!
1.
1/
04
12
13
#740000
0"
00
01
#750000
1"
10
11
#760000
0"
00
01
#770000
0!
1"
10
0.
0/
11
#780000
0"
00
01
#790000
1"
10
11
#805000
1!
1.
1/
14
15
01
1-
1#
#810000
0"
00
05
03
0-
0#
#820000
1"
10
15
13
1-
1#
#830000
0"
00
05
03
0-
0#
#840000
0!
1"
10
0.
0/
15
13
1-
1#
#870000
0"
00
05
03
0-
0#
#875000
1!
1.
1/
04
02
13
#900000
1"
10
03
#910000
0!
0.
0/
#920000
0"
00
13
#930000
1"
10
03
#940000
0"
00
13
#945000
1!
1.
1/
14
#950000
1"
10
03
11
#980000
0!
0.
0/
